央视频道,#genre#
CCTV1综合,http://124.222.142.65:5678/zhibo/index.php?id=cctv1&xingguang=zhibo.m3u8
CCTV1综合,http://36.129.58.53:8008/paiptv/CCTV1.m3u8
CCTV1综合,http://39.134.24.162/dbiptv.sn.chinamobile.com/PLTV/88888890/224/3221225804/index.m3u8
CCTV1综合,https://node1.olelive.com:6443/live/CCTV1HD/hls.m3u8
CCTV1综合,http://42.176.185.28:9901/tsfile/live/1022_1.m3u8
CCTV1综合,http://36.129.58.53:8008/paiptv/CCTV1.m3u8
CCTV1综合, http://stream.smntv.cn/smtv1/sd/live.m3u8
CCTV1综合, https://node1.olelive.com:6443/live/CCTV1HD/hls.m3u8
CCTV1综合,https://node1.olelive.com:6443/live/CCTV1HD/hls.m3u8
CCTV1综合,http://jscbn.ch-cdn.gitv.tv/gitv_escape/G_CCTV-1-CQ/G_CCTV-1-CQ.m3u8
CCTV1综合,http://39.134.24.165/dbiptv.sn.chinamobile.com/PLTV/88888888/224/3221225804/1.m3u8
CCTV1综合,http://112.132.181.221:9988/hls/1/index.m3u8
CCTV1综合,https://node1.olelive.com:6443/live/CCTV1HD/hls.m3u8
CCTV1综合,http://jscbn.ali-cdn.gitv.tv/gitv_escape/G_CCTV-1-CQ/G_CCTV-1-CQ.m3u8 
CCTV1综合,http://jscbn.tx-cdn.gitv.tv/gitv_escape/G_CCTV-1-CQ/G_CCTV-1-CQ.m3u8
CCTV1综合,http://jscbn.ch-cdn.gitv.tv/gitv_escape/G_CCTV-1-CQ/G_CCTV-1-CQ.m3u8
CCTV1综合,http://39.134.24.165/dbiptv.sn.chinamobile.com/PLTV/88888888/224/3221225804/1.m3u8
CCTV1综合,http://112.132.181.221:9988/hls/1/index.m3u8
CCTV1综合,http://ahcbn.ali-cdn.gitv.tv/gitv_escape/G_CCTV-1-HQ/G_CCTV-1-HQ.m3u8
CCTV1综合,https://ldncctvwbndhwy.cntv.myhwcdn.cn/ldncctvwbnd/ldcctv1_2/index.m3u8
CCTV1综合,http://jscbn.ws-cdn.gitv.tv/gitv_escape/G_CCTV-1-CQ/G_CCTV-1-CQ.m3u8
CCTV1综合,http://jscbn.tx-cdn.gitv.tv/gitv_escape/G_CCTV-1-CQ/G_CCTV-1-CQ.m3u8
CCTV1综合,http://jscbn.ks-cdn.gitv.tv/gitv_escape/G_CCTV-1-CQ/G_CCTV-1-CQ.m3u8
CCTV1综合,http://jscbn.hw-cdn.gitv.tv/gitv_escape/G_CCTV-1-CQ/G_CCTV-1-CQ.m3u8
CCTV1综合,http://jscbn.ali-cdn.gitv.tv/gitv_escape/G_CCTV-1-CQ/G_CCTV-1-CQ.m3u8
CCTV1综合,http://jxcbn.tx-cdn.gitv.tv/gitv_escape/G_CCTV-1-CQ/G_CCTV-1-CQ.m3u8
CCTV1综合,http://jxcbn.hw-cdn.gitv.tv/gitv_escape/G_CCTV-1-CQ/G_CCTV-1-CQ.m3u8
CCTV1综合,http://nmcbn.ch-cdn.gitv.tv/gitv_escape/G_CCTV-1-CQ/G_CCTV-1-CQ.m3u8
CCTV1综合,http://gzcbn.ch-cdn.gitv.tv/gitv_escape/G_CCTV-1-CQ/G_CCTV-1-CQ.m3u8
CCTV1综合,http://183.134.3.22:8888/newlive/live/hls/2/live.m3u8
CCTV1综合,http://221.213.43.82:8888/newlive/live/hls/2/live.m3u8
CCTV1综合,http://222.71.90.218:8888/newlive/live/hls/2/live.m3u8
CCTV1综合,http://223.95.111.98:5555/newlive/live/hls/1/live.m3u8
CCTV1综合,http://ktwlplkf.f3322.org:9901/tsfile/live/0001_1.m3u8
CCTV1综合,https://zb.pzhgd.com:444/live/cctv1.m3u8
CCTV1综合,http://39.134.24.165/dbiptv.sn.chinamobile.com/PLTV/88888890/224/3221225804/index.m3u8
CCTV1综合,http://39.134.24.162/dbiptv.sn.chinamobile.com/PLTV/88888890/224/3221225804/index.m3u8
CCTV1综合,http://39.134.24.161/dbiptv.sn.chinamobile.com/PLTV/88888890/224/3221225804/index.m3u8

CCTV2财经,http://112.132.181.221:9988/hls/2/index.m3u8
CCTV2财经,http://39.134.24.165/dbiptv.sn.chinamobile.com/PLTV/88888888/224/3221226195/1.m3u8
CCTV2财经,http://jscbn.tx-cdn.gitv.tv/gitv_escape/G_CCTV-2-CQ/G_CCTV-2-CQ.m3u8
CCTV2财经,http://39.134.24.162/dbiptv.sn.chinamobile.com/PLTV/88888890/224/3221226224/index.m3u8
CCTV2财经,https://node1.olelive.com:6443/live/CCTV2HD/hls.m3u8
CCTV2财经,http://36.129.58.53:8008/paiptv/CCTV-2.m3u8
CCTV2财经,http://124.222.142.65:5678/zhibo/index.php?id=cctv2&xingguang=zhibo.m3u8
CCTV2财经,http://liveop.cctv.cn/hls/CCTV28bee868714f04ea2af79947bb9b46fc3H/playlist.m3u8
CCTV2财经, http://36.129.58.53:8008/paiptv/CCTV-2.m3u8
CCTV2财经,http://jscbn.tx-cdn.gitv.tv/gitv_escape/G_CCTV-2-CQ/G_CCTV-2-CQ.m3u8
CCTV2财经,http://39.134.24.162/dbiptv.sn.chinamobile.com/PLTV/88888888/224/3221226195/1.m3u8
CCTV2财经,http://jscbn.tx-cdn.gitv.tv/gitv_escape/G_CCTV-2-CQ/G_CCTV-2-CQ.m3u8
CCTV2财经,http://39.134.24.165/dbiptv.sn.chinamobile.com/PLTV/88888888/224/3221226195/1.m3u8
CCTV2财经,http://112.132.181.221:9988/hls/2/index.m3u8
CCTV2财经,http://ahcbn.ali-cdn.gitv.tv/gitv_escape/G_CCTV-2-HQ/G_CCTV-2-HQ.m3u8 
CCTV2财经,http://39.134.24.165/dbiptv.sn.chinamobile.com/PLTV/88888890/224/3221226195/index.m3u8
CCTV2财经,http://39.134.24.162/dbiptv.sn.chinamobile.com/PLTV/88888890/224/3221226224/index.m3u8
CCTV2财经,http://39.134.24.161/dbiptv.sn.chinamobile.com/PLTV/88888890/224/3221226195/index.m3u8
CCTV2财经,http://219.140.56.34:3333/tsfile/live/0002_1.m3u8
CCTV2财经,http://221.213.43.82:8888/newlive/live/hls/3/live.m3u8
CCTV2财经,http://223.95.111.98:5555/newlive/live/hls/2/live.m3u8

CCTV3综艺,http://219.140.56.34:3333/tsfile/live/0003_1.m3u8
CCTV3综艺,http://221.213.43.82:8888/newlive/live/hls/4/live.m3u8
CCTV3综艺,http://223.95.111.98:5555/newlive/live/hls/3/live.m3u8
CCTV3综艺,http://36.129.58.53:8008/paiptv/CCTV-3.m3u8
CCTV3综艺,http://124.222.142.65:5678/zhibo/index.php?id=cctv3&xingguang=zhibo.m3u8
CCTV3综艺,https://node1.olelive.com:6443/live/CCTV3HD/hls.m3u8
CCTV3综艺, http://36.129.58.53:8008/paiptv/CCTV-3.m3u8
CCTV3综艺,http://112.132.181.221:9988/hls/3/index.m3u8
CCTV3综艺,http://39.134.24.165/dbiptv.sn.chinamobile.com/PLTV/88888888/224/3221226397/1.m3u8
CCTV3综艺,http://jscbn.tx-cdn.gitv.tv/gitv_escape/G_CCTV-3-CQ/G_CCTV-3-CQ.m3u8
CCTV3综艺,http://112.132.181.221:9988/hls/3/index.m3u8
CCTV3综艺,http://ahcbn.ali-cdn.gitv.tv/gitv_escape/G_CCTV-3-HQ/G_CCTV-3-HQ.m3u8 
CCTV3综艺,http://jscbn.tx-cdn.gitv.tv/gitv_escape/G_CCTV-3-CQ/G_CCTV-3-CQ.m3u8
CCTV3综艺,http://39.134.24.165/dbiptv.sn.chinamobile.com/PLTV/88888888/224/3221226397/1.m3u8
CCTV3综艺,http://jscbn.tx-cdn.gitv.tv/gitv_escape/G_CCTV-3-CQ/G_CCTV-3-CQ.m3u8
CCTV3综艺,http://223.95.111.98:5555/newlive/live/hls/3/live.m3u8
CCTV3综艺,http://219.140.56.34:3333/tsfile/live/0003_1.m3u8
CCTV3综艺,http://221.213.43.82:8888/newlive/live/hls/4/live.m3u8
CCTV3综艺,http://39.134.24.165/dbiptv.sn.chinamobile.com/PLTV/88888888/224/3221226397/1.m3u8
CCTV3综艺,http://39.134.24.166/dbiptv.sn.chinamobile.com/PLTV/88888888/224/3221226397/1.m3u8
CCTV3综艺,http://39.134.24.162/dbiptv.sn.chinamobile.com/PLTV/88888888/224/3221226397/1.m3u8

CCTV4中文国际,http://jscbn.tx-cdn.gitv.tv/gitv_escape/G_CCTV-4-CQ/G_CCTV-4-CQ.m3u8
CCTV4中文国际,http://demo.v2.hls.timetv.cn/live/hndx.m3u8?token=TV35174627HNDX06142105&channel=275
CCTV4中文国际,http://jscbn.tx-cdn.gitv.tv/gitv_escape/G_CCTV-4-CQ/G_CCTV-4-CQ.m3u8
CCTV4中文国际,http://39.134.24.165/dbiptv.sn.chinamobile.com/PLTV/88888888/224/3221226191/1.m3u8
CCTV4中文国际,http://112.132.181.221:9988/hls/4/index.m3u8
CCTV4中文国际,http://39.134.24.161/dbiptv.sn.chinamobile.com/PLTV/88888890/224/3221226191/index.m3u8
CCTV4中文国际,http://112.132.181.221:9988/hls/4/index.m3u8
CCTV4中文国际,http://39.134.24.165/dbiptv.sn.chinamobile.com/PLTV/88888888/224/3221226191/1.m3u8
CCTV4中文国际,http://jscbn.tx-cdn.gitv.tv/gitv_escape/G_CCTV-4-CQ/G_CCTV-4-CQ.m3u8
CCTV4中文国际,http://39.134.24.161/dbiptv.sn.chinamobile.com/PLTV/88888890/224/3221226191/index.m3u8?
CCTV4中文国际,http://219.140.56.34:3333/tsfile/live/1004_1.m3u8
CCTV4中文国际,http://221.213.43.82:8888/newlive/live/hls/5/live.m3u8
CCTV4中文国际,http://210.210.155.37/qwr9ew/s/s19/index.m3u8
CCTV4中文国际，http://124.222.142.65:5678/zhibo/index.php?id=cctv4&xingguang=zhibo.m3u8
CCTV4中文国际, http://36.129.58.53:8008/paiptv/CCTV-4.m3u8
CCTV4中文国际,http://221.213.43.82:8888/newlive/live/hls/5/live.m3u8
CCTV4中文国际,http://39.134.24.165/dbiptv.sn.chinamobile.com/PLTV/88888890/224/3221226191/index.m3u8
CCTV4中文国际,http://39.134.24.162/dbiptv.sn.chinamobile.com/PLTV/88888890/224/3221226191/index.m3u8
CCTV4中文国际,http://39.134.24.161/dbiptv.sn.chinamobile.com/PLTV/88888890/224/3221226191/index.m3u8

CCTV4欧洲,http://159.75.166.157/php/migu.php?id=cctv4o
CCTV4美洲,http://159.75.166.157/php/migu.php?id=cctv4a

CCTV5体育,http://39.134.24.161/dbiptv.sn.chinamobile.com/PLTV/88888890/224/3221225761/index.m3u8?
CCTV5体育,http://111.20.35.103:6610/000000001000/1000000001000020505/index.m3u8?channel-CCTV5+体育赛事,http://219.140.56.34:3333/tsfile/live/0016_1.m3u8
CCTV5体育,http://221.213.43.82:8888/newlive/live/hls/7/live.m3u8
CCTV5体育,http://39.134.24.161/dbiptv.sn.chinamobile.com/PLTV/88888890/224/3221226395/index.m3u8
CCTV5体育,http://39.134.24.162/dbiptv.sn.chinamobile.com/PLTV/88888890/224/3221226395/index.m3u8
CCTV5体育,http://1.85.0.62:808/hls/503/index.m3u8
CCTV5体育,http://219.140.56.34:3333/tsfile/live/1005_1.m3u8
CCTV5体育,http://221.213.43.82:8888/newlive/live/hls/6/live.m3u8
CCTV5体育,http://222.71.90.218:8888/newlive/live/hls/6/live.m3u8
CCTV5体育,http://223.95.111.98:5555/newlive/live/hls/5/live.m3u8
CCTV5体育,http://222.71.90.218:8888/newlive/live/hls/11/live.m3u8
CCTV5体育, http://124.222.142.65:5678/zhibo/index.php?id=cctv5&xingguang=zhibo.m3u8
CCTV5体育, https://node1.olelive.com:6443/live/CCTV5PHD/hls.m3u8
CCTV5体育,https://node1.olelive.com:6443/live/CCTV5HD/hls.m3u8
CCTV5体育,http://112.132.181.221:9988/hls/5/index.m3u8
CCTV5体育,https://node1.olelive.com:6443/live/CCTV5PHD/hls.m3u8
CCTV5体育,http://jscbn.tx-cdn.gitv.tv/gitv_escape/G_CCTV-5-CQ/G_CCTV-5-CQ.m3u8
CCTV5体育,http://jscbn.tx-cdn.gitv.tv/gitv_escape/G_CCTV-5PLUS-CQ/G_CCTV-5PLUS-CQ.m3u8
CCTV5体育,http://39.134.24.165/dbiptv.sn.chinamobile.com/PLTV/88888888/224/3221226395/1.m3u8
CCTV5体育,http://39.134.24.165/dbiptv.sn.chinamobile.com/PLTV/88888888/224/3221225761/1.m3u8
CCTV5体育,http://36.129.58.53:8008/paiptv/CCTV-5.m3u8
CCTV5体育, http://36.129.58.53:8008/paiptv/CCTV5+-HD.m3u8
CCTV5体育,http://jscbn.tx-cdn.gitv.tv/gitv_escape/G_CCTV-5-CQ/G_CCTV-5-CQ.m3u8
CCTV5体育,http://39.134.24.165/dbiptv.sn.chinamobile.com/PLTV/88888888/224/3221226395/1.m3u8
CCTV5体育,http://112.132.181.221:9988/hls/5/index.m3u8
CCTV5体育,http://ahcbn.ali-cdn.gitv.tv/gitv_escape/G_CCTV-5-HQ/G_CCTV-5-HQ.m3u8 
CCTV5体育,http://jscbn.tx-cdn.gitv.tv/gitv_escape/G_CCTV-5PLUS-CQ/G_CCTV-5PLUS-CQ.m3u8
CCTV5体育,http://39.134.24.165/dbiptv.sn.chinamobile.com/PLTV/88888888/224/3221225761/1.m3u8
CCTV5体育,http://112.132.181.221:9988/hls/6/index.m3u8
CCTV5体育,https://node1.olelive.com:6443/live/CCTV5HD/hls.m3u8
CCTV5体育,http://jscbn.tx-cdn.gitv.tv/gitv_escape/G_CCTV-5-CQ/G_CCTV-5-CQ.m3u8
CCTV5体育,https://node1.olelive.com:6443/live/CCTV5PHD/hls.m3u8
CCTV5体育,http://jscbn.tx-cdn.gitv.tv/gitv_escape/G_CCTV-5-CQ/G_CCTV-5-CQ.m3u8
CCTV5体育,http://219.140.56.34:3333/tsfile/live/1005_1.m3u8
CCTV5体育,http://221.213.43.82:8888/newlive/live/hls/6/live.m3u8
CCTV5体育,http://222.71.90.218:8888/newlive/live/hls/6/live.m3u8
CCTV5体育,http://223.95.111.98:5555/newlive/live/hls/5/live.m3u8
CCTV5体育,http://222.71.90.218:8888/newlive/live/hls/11/live.m3u8
CCTV5体育,http://39.134.24.161/dbiptv.sn.chinamobile.com/PLTV/88888890/224/3221226395/index.m3u8
CCTV5体育,http://39.134.24.161/dbiptv.sn.chinamobile.com/PLTV/88888890/224/3221226395/index.m3u8?
CCTV5体育,http://219.140.56.34:3333/tsfile/live/0016_1.m3u8
CCTV5体育,http://221.213.43.82:8888/newlive/live/hls/7/live.m3u8
CCTV5体育,http://39.134.24.162/dbiptv.sn.chinamobile.com/PLTV/88888890/224/3221225761/index.m3u8
CCTV5体育,http://39.134.24.161/dbiptv.sn.chinamobile.com/PLTV/88888890/224/3221225761/index.m3u8?

CCTV6电影,http://jscbn.tx-cdn.gitv.tv/gitv_escape/G_CCTV-6-CQ/G_CCTV-6-CQ.m3u8
CCTV6电影,http://112.132.181.221:9988/hls/7/index.m3u8
CCTV6电影,http://ahcbn.ali-cdn.gitv.tv/gitv_escape/G_CCTV-6-HQ/G_CCTV-6-HQ.m3u8 
CCTV6电影,http://jscbn.tx-cdn.gitv.tv/gitv_escape/G_CCTV-6-CQ/G_CCTV-6-CQ.m3u8
CCTV6电影,http://39.134.24.165/dbiptv.sn.chinamobile.com/PLTV/88888888/224/3221226393/1.m3u8
CCTV6电影，http://124.222.142.65:5678/zhibo/index.php?id=cctv6&xingguang=zhibo.m3u8
CCTV6电影, http://36.129.58.53:8008/paiptv/CCTV-6.m3u8
CCTV6电影,http://111.20.35.103:6610/000000001000/1000000001000016466/index.m3u8?channel-id=ystenlive&Contentid=1000000001000016466&livemode=1&stbId=00
CCTV6电影,http://111.20.35.103:6610/yinhe/2/ch00000090990000001016/index.m3u8?virtualDomain=yinhe.live_hls.zte.com&IASHttpSessionId=
CCTV6电影,http://111.20.35.103:6610/yinhe/2/ch00000090990000001275/index.m3u8?virtualDomain=yinhe.live_hls.zte.com
CCTV6电影,http://219.140.56.34:3333/tsfile/live/1006_1.m3u8
CCTV6电影,http://221.213.43.82:8888/newlive/live/hls/8/live.m3u8
CCTV6电影,http://222.71.90.218:8888/newlive/live/hls/7/live.m3u8
CCTV6电影,http://223.95.111.98:5555/newlive/live/hls/6/live.m3u8
CCTV6电影,http://112.132.181.221:9988/hls/7/index.m3u8
CCTV6电影,http://jscbn.tx-cdn.gitv.tv/gitv_escape/G_CCTV-6-CQ/G_CCTV-6-CQ.m3u8
CCTV6电影,http://39.134.24.165/dbiptv.sn.chinamobile.com/PLTV/88888888/224/3221226393/1.m3u8
CCTV6电影，http://1.85.0.62:808/hls/6/index.m3u8
CCTV6电影,http://39.134.24.162/dbiptv.sn.chinamobile.com/PLTV/88888890/224/3221226393/index.m3u8
CCTV6电影,http://39.134.24.166/dbiptv.sn.chinamobile.com/PLTV/88888888/224/3221226393/1.m3u8
CCTV6电影,http://219.140.56.34:3333/tsfile/live/1006_1.m3u8
CCTV6电影,http://221.213.43.82:8888/newlive/live/hls/8/live.m3u8
CCTV6电影,http://222.71.90.218:8888/newlive/live/hls/7/live.m3u8
CCTV6电影,http://223.95.111.98:5555/newlive/live/hls/6/live.m3u8

CCTV7标清,https://node1.olelive.com:6443/live/CCTV7HD/hls.m3u8
CCTV7标清,http://jscbn.tx-cdn.gitv.tv/gitv_escape/G_CCTV-7-CQ/G_CCTV-7-CQ.m3u8
CCTV7标清,http://39.134.24.165/dbiptv.sn.chinamobile.com/PLTV/88888888/224/3221226192/1.m3u8
CCTV7标清,http://112.132.181.221:9988/hls/8/index.m3u8
CCTV7标清，http://124.222.142.65:5678/zhibo/index.php?id=cctv7&xingguang=zhibo.m3u8
CCTV7标清, http://36.129.58.53:8008/paiptv/CCTV-7.m3u8
CCTV7标清,http://221.213.43.82:8888/newlive/live/hls/9/live.m3u8
CCTV7标清,http://demo.v2.hls.timetv.cn/live/hndx.m3u8?token=TV35174627HNDX06142105&channel=263
CCTV7标清,http://jscbn.tx-cdn.gitv.tv/gitv_escape/G_CCTV-7-CQ/G_CCTV-7-CQ.m3u8
CCTV7标清,http://39.134.24.165/dbiptv.sn.chinamobile.com/PLTV/88888888/224/3221226192/1.m3u8
CCTV7标清,http://112.132.181.221:9988/hls/8/index.m3u8
CCTV7标清,http://ahcbn.ali-cdn.gitv.tv/gitv_escape/G_CCTV-7-HQ/G_CCTV-7-HQ.m3u8 
CCTV7标清,https://node1.olelive.com:6443/live/CCTV7HD/hls.m3u8
CCTV7标清,http://jscbn.tx-cdn.gitv.tv/gitv_escape/G_CCTV-7-CQ/G_CCTV-7-CQ.m3u8

CCTV8电视剧,http://jscbn.tx-cdn.gitv.tv/gitv_escape/G_CCTV-8-CQ/G_CCTV-8-CQ.m3u8
CCTV8电视剧,http://112.132.181.221:9988/hls/9/index.m3u8
CCTV8电视剧,http://ahcbn.ali-cdn.gitv.tv/gitv_escape/G_CCTV-8-HQ/G_CCTV-8-HQ.m3u8 
CCTV8电视剧,http://jscbn.tx-cdn.gitv.tv/gitv_escape/G_CCTV-8-CQ/G_CCTV-8-CQ.m3u8
CCTV8电视剧,http://39.134.24.165/dbiptv.sn.chinamobile.com/PLTV/88888888/224/3221226391/1.m3u8
CCTV8电视剧,http://223.95.111.98:5555/newlive/live/hls/8/live.m3u8
CCTV8电视剧,http://36.129.58.53:8008/paiptv/CCTV-8.m3u8
CCTV8电视剧, http://124.222.142.65:5678/zhibo/index.php?id=cctv8&xingguang=zhibo.m3u8
CCTV8电视剧,http://112.132.181.221:9988/hls/9/index.m3u8
CCTV8电视剧,http://39.134.24.165/dbiptv.sn.chinamobile.com/PLTV/88888888/224/3221226391/1.m3u8
CCTV8电视剧,http://jscbn.tx-cdn.gitv.tv/gitv_escape/G_CCTV-8-CQ/G_CCTV-8-CQ.m3u8

CCTV9记录,http://39.134.24.161/dbiptv.sn.chinamobile.com/PLTV/88888890/224/3221226197/index.m3u8?
CCTV9记录,http://111.59.63.32:9901/tsfile/live/1016_1.m3u8
CCTV9记录,http://221.213.43.82:8888/newlive/live/hls/11/live.m3u8
CCTV9记录,http://223.95.111.98:5555/newlive/live/hls/9/live.m3u8
CCTV9记录, http://36.129.58.53:8008/paiptv/CCTV-9.m3u8
CCTV9记录,http://124.222.142.65:5678/zhibo/index.php?id=cctv9&xingguang=zhibo.m3u8
CCTV9记录,http://jscbn.tx-cdn.gitv.tv/gitv_escape/G_CCTV-9-HD-265-5M/G_CCTV-9-HD-265-5M.m3u8
CCTV9记录,https://node1.olelive.com:6443/live/CCTV9HD/hls.m3u8
CCTV9记录,http://39.134.24.165/dbiptv.sn.chinamobile.com/PLTV/88888888/224/3221226197/1.m3u8
CCTV9记录,http://112.132.181.221:9988/hls/10/index.m3u8
CCTV9记录,http://112.132.181.221:9988/hls/10/index.m3u8
CCTV9纪录,http://jscbn.tx-cdn.gitv.tv/gitv_escape/G_CCTV-9-HD-265-5M/G_CCTV-9-HD-265-5M.m3u8
CCTV9纪录,http://39.134.24.165/dbiptv.sn.chinamobile.com/PLTV/88888888/224/3221226197/1.m3u8
CCTV9纪录,http://112.132.181.221:9988/hls/10/index.m3u8
CCTV9纪录,http://jscbn.tx-cdn.gitv.tv/gitv_escape/G_CCTV-9-HD-265-5M/G_CCTV-9-HD-265-5M.m3u8 
CCTV9纪录,https://node1.olelive.com:6443/live/CCTV9HD/hls.m3u8

CCTV10科教,http://112.132.181.221:9988/hls/11/index.m3u8
CCTV10科教,http://jscbn.tx-cdn.gitv.tv/gitv_escape/G_CCTV-10-HQ/G_CCTV-10-HQ.m3u8
CCTV10科教,http://hls.cntv.kcdnvip.com/asp/hls/1200/0303000a/3/default/25137bd7c4494128bf0cba271974928f/1200.m3u8
CCTV10科教,http://ahcbn.ali-cdn.gitv.tv/gitv_escape/G_CCTV-10-HQ/G_CCTV-10-HQ.m3u8 
CCTV10科教,http://jscbn.tx-cdn.gitv.tv/gitv_escape/G_CCTV-10-HQ/G_CCTV-10-HQ.m3u8
CCTV10科教,http://111.59.63.32:9901/tsfile/live/1017_1.m3u8
CCTV10科教,http://221.213.43.82:8888/newlive/live/hls/12/live.m3u8
CCTV10科教,http://222.71.90.218:8888/newlive/live/hls/11/live.m3u8
CCTV10科教,http://223.95.111.98:5555/newlive/live/hls/10/live.m3u8
CCTV10科教,http://36.129.58.53:8008/paiptv/CCTV-10.m3u8
CCTV10科教,http://124.222.142.65:5678/zhibo/index.php?id=cctv10&xingguang=zhibo.m3u8
CCTV10科教,10,http://120.196.232.124:8088/000000001001PLTV/651/224/3221227559/1.m3u8?HlsProfileId=
CCTV10科教,http://jscbn.tx-cdn.gitv.tv/gitv_escape/G_CCTV-10-HQ/G_CCTV-10-HQ.m3u8
CCTV10科教,http://112.132.181.221:9988/hls/11/index.m3u8
CCTV10科教,http://39.134.24.162/dbiptv.sn.chinamobile.com/PLTV/88888890/224/3221226189/index.m3u8
CCTV10科教,http://39.134.24.161/dbiptv.sn.chinamobile.com/PLTV/88888890/224/3221226189/index.m3u8?

CCTV11戏曲,http://221.213.43.82:8888/newlive/live/hls/13/live.m3u8
CCTV11戏曲,http://36.129.58.53:8008/paiptv/CCTV-11.m3u8
CCTV11戏曲,http://124.222.142.65:5678/zhibo/index.php?id=cctv11&xingguang=zhibo.m3u8
CCTV11戏曲,http://112.132.181.221:9988/hls/12/index.m3u8
CCTV11戏曲,http://jscbn.tx-cdn.gitv.tv/gitv_escape/G_CCTV-11-HQ/G_CCTV-11-HQ.m3u8
CCTV11戏曲,http://112.132.181.221:9988/hls/12/index.m3u
CCTV11戏曲,http://jscbn.tx-cdn.gitv.tv/gitv_escape/G_CCTV-11-HQ/G_CCTV-11-HQ.m3u8
CCTV11戏曲,http://112.132.181.221:9988/hls/12/index.m3u8
CCTV11戏曲,http://jscbn.tx-cdn.gitv.tv/gitv_escape/G_CCTV-11-HQ/G_CCTV-11-HQ.m3u8
CCTV11科教,http://221.213.43.82:8888/newlive/live/hls/13/live.m3u8

CCTV12社会与法,http://ahcbn.ali-cdn.gitv.tv/gitv_escape/G_CCTV-12-HQ/G_CCTV-12-HQ.m3u8 
CCTV12社会与法,http://jscbn.tx-cdn.gitv.tv/gitv_escape/G_CCTV-12-HD-265-5M/G_CCTV-12-HD-265-5M.m3u8
CCTV12社会与法,http://112.132.181.221:9988/hls/13/index.m3u8
CCTV12社会与法,http://36.129.58.53:8008/paiptv/CCTV-12.m3u8
CCTV12社会与法,http://124.222.142.65:5678/zhibo/index.php?id=cctv12&xingguang=zhibo.m3u8
CCTV12社会与法,http://jscbn.tx-cdn.gitv.tv/gitv_escape/G_CCTV-12-HD-265-5M/G_CCTV-12-HD-265-5M.m3u8
CCTV12社会与法,http://221.213.43.82:8888/newlive/live/hls/14/live.m3u8
CCTV12社会与法,http://223.95.111.98:5555/newlive/live/hls/12/live.m3u8

CCTV13新闻,http://39.134.24.161/dbiptv.sn.chinamobile.com/PLTV/88888890/224/3221226233/index.m3u8
CCTV13新闻,http://221.213.43.82:8888/newlive/live/hls/15/live.m3u8
CCTV13新闻,http://223.95.111.98:5555/newlive/live/hls/13/live.m3u8
CCTV13新闻,https://live-play.cctvnews.cctv.com/cctv/merge_cctv13_mud.m3u8
CCTV13新闻,https://live-play.cctvnews.cctv.com/cctv/merge_cctv13.m3u8
CCTV13新闻,http://39.134.24.162/dbiptv.sn.chinamobile.com/PLTV/88888890/224/3221226233/index.m3u8
CCTV13新闻,https://node1.olelive.com:6443/live/CCTV13HD/hls.m3u8
CCTV13新闻,http://124.222.142.65:5678/zhibo/index.php?id=cctv13&xingguang=zhibo.m3u8
CCTV13新闻, http://36.129.58.53:8008/paiptv/CCTV-13.m3u8
CCTV13新闻,https://live-play.cctvnews.cctv.com/cctv/merge_cctv13_mud.m3u8
CCTV13新闻,https://live-play.cctvnews.cctv.com/cctv/merge_cctv13.m3u8
CCTV13新闻,https://node1.olelive.com:6443/live/CCTV13HD/hls.m3u8
CCTV13新闻,http://112.132.181.221:9988/hls/14/index.m3u8
CCTV13新闻,http://jscbn.tx-cdn.gitv.tv/gitv_escape/G_CCTV-13-CQ/G_CCTV-13-CQ.m3u8
CCTV13新闻,http://39.134.24.165/dbiptv.sn.chinamobile.com/PLTV/88888888/224/3221226233/1.m3u8

CCTV13新闻,http://demo.v2.hls.timetv.cn/live/hndx.m3u8?token=TV35174627HNDX06142105&channel=243
CCTV13新闻,http://jscbn.tx-cdn.gitv.tv/gitv_escape/G_CCTV-13-CQ/G_CCTV-13-CQ.m3u8
CCTV13新闻,http://39.134.24.165/dbiptv.sn.chinamobile.com/PLTV/88888888/224/3221226233/1.m3u8
CCTV13新闻,http://112.132.181.221:9988/hls/14/index.m3u8
CCTV13新闻,http://ahcbn.ali-cdn.gitv.tv/gitv_escape/G_CCTV-13-HQ/G_CCTV-13-HQ.m3u8 
CCTV13新闻,https://live-play.cctvnews.cctv.com/cctv/merge_cctv13.m3u8

CCTV13新闻,http://jscbn.tx-cdn.gitv.tv/gitv_escape/G_CCTV-13-CQ/G_CCTV-13-CQ.m3u8
CCTV13新闻,http://39.134.24.165/dbiptv.sn.chinamobile.com/PLTV/88888890/224/3221226233/index.m3u8
CCTV13新闻,http://39.134.24.162/dbiptv.sn.chinamobile.com/PLTV/88888890/224/3221226233/index.m3u8
CCTV13新闻,http://39.134.24.161/dbiptv.sn.chinamobile.com/PLTV/88888890/224/3221226233/index.m3u8
CCTV13新闻,http://221.213.43.82:8888/newlive/live/hls/15/live.m3u8
CCTV13新闻,http://223.95.111.98:5555/newlive/live/hls/13/live.m3u8
CCTV13新闻,https://live-play.cctvnews.cctv.com/cctv/merge_cctv13_mud.m3u8

CCTV14少儿,http://jscbn.tx-cdn.gitv.tv/gitv_escape/G_CCTV-14-CQ/G_CCTV-14-CQ.m3u8
CCTV14少儿,http://ahcbn.ali-cdn.gitv.tv/gitv_escape/G_CCTV-14-HQ/G_CCTV-14-HQ.m3u8 
CCTV14少儿,http://112.132.181.221:9988/hls/15/index.m3u8
CCTV14少儿,http://demo.v2.hls.timetv.cn/live/hndx.m3u8?token=TV35174627HNDX06142105&channel=303
CCTV14少儿,http://jscbn.tx-cdn.gitv.tv/gitv_escape/G_CCTV-14-HD/G_CCTV-14-HD.m3u8
CCTV14少儿,http://39.134.24.165/dbiptv.sn.chinamobile.com/PLTV/88888888/224/3221226193/1.m3u8
CCTV14少儿,http://39.134.24.165/dbiptv.sn.chinamobile.com/PLTV/88888888/224/3221226193/1.m3u8
CCTV14少儿,http://112.132.181.221:9988/hls/15/index.m3u8
CCTV14少儿,http://jscbn.tx-cdn.gitv.tv/gitv_escape/G_CCTV-14-HD/G_CCTV-14-HD.m3u8
CCTV14少儿,https://node1.olelive.com:6443/live/CCTV14HD/hls.m3u8
CCTV14少儿,http://124.222.142.65:5678/zhibo/index.php?id=cctv14&xingguang=zhibo.m3u8
CCTV14少儿,http://36.129.58.53:8008/paiptv/CCTV-14.m3u8
CCTV14少儿,http://221.213.43.82:8888/newlive/live/hls/16/live.m3u8
CCTV14少儿,http://222.71.90.218:8888/newlive/live/hls/15/live.m3u8
CCTV14少儿,http://223.95.111.98:5555/newlive/live/hls/14/live.m3u8
CCTV14少儿,http://39.134.24.165/dbiptv.sn.chinamobile.com/PLTV/88888890/224/3221226193/index.m3u8
CCTV14少儿,http://39.134.24.166/dbiptv.sn.chinamobile.com/PLTV/88888890/224/3221226193/index.m3u8
CCTV14少儿,http://39.134.24.166/dbiptv.sn.chinamobile.com/PLTV/88888888/224/3221226193/1.m3u8
CCTV14少儿,http://221.213.43.82:8888/newlive/live/hls/16/live.m3u8
CCTV14少儿,http://222.71.90.218:8888/newlive/live/hls/15/live.m3u8
CCTV14少儿,http://222.71.90.218:8888/newlive/live/hls/15/live.m3u8
CCTV14少儿,http://223.95.111.98:5555/newlive/live/hls/14/live.m3u8

CCTV15音乐,http://39.134.24.161/dbiptv.sn.chinamobile.com/PLTV/88888890/224/3221225785/1.m3u8
CCTV15音乐,http://39.134.24.162/dbiptv.sn.chinamobile.com/PLTV/88888890/224/3221225785/index.m3u8
CCTV15音乐,http://39.134.24.161/dbiptv.sn.chinamobile.com/PLTV/88888890/224/3221225785/index.m3u8
CCTV15音乐,http://111.59.63.32:9901/tsfile/live/1022_1.m3u8
CCTV15音乐,http://221.213.43.82:8888/newlive/live/hls/17/live.m3u8   
CCTV15音乐,http://jscbn.tx-cdn.gitv.tv/gitv_escape/G_CCTV-15/G_CCTV-15.m3u8
CCTV15音乐,http://112.132.181.221:9988/hls/16/index.m3u8
CCTV15音乐,http://124.222.142.65:5678/zhibo/index.php?id=cctv15&xingguang=zhibo.m3u8
CCTV15音乐,http://36.129.58.53:8008/paiptv/CCTV-15.m3u8
CCTV15音乐,http://111.59.63.32:9901/tsfile/live/1022_1.m3u8
CCTV15音乐,http://221.213.43.82:8888/newlive/live/hls/17/live.m3u8
CCTV15音乐,http://jscbn.tx-cdn.gitv.tv/gitv_escape/G_CCTV-15/G_CCTV-15.m3u8
CCTV15音乐,http://112.132.181.221:9988/hls/16/index.m3u8
CCTV15音乐,http://jscbn.tx-cdn.gitv.tv/gitv_escape/G_CCTV-15-CQ/G_CCTV-15-CQ.m3u8

CCTV16体育高清,http://jscbn.tx-cdn.gitv.tv/gitv_escape/G_CCTV-17-CQ/G_CCTV-17-CQ.m3u8
CCTV16体育高清,http://39.134.24.162/dbiptv.sn.chinamobile.com/PLTV/88888890/224/3221226921/index.m3u8
CCTV16体育高清,http://jscbn.tx-cdn.gitv.tv/gitv_escape/G_CCTV-16-CQ/G_CCTV-16-CQ.m3u8
CCTV16体育高清,http://39.134.24.165/dbiptv.sn.chinamobile.com/PLTV/88888888/224/3221226921/1.m3u8
CCTV16体育高清,http://112.132.181.221:9988/hls/52/index.m3u8
CCTV16体育高清,http://112.132.181.221:9988/hls/52/index.m3u8
CCTV16体育高清,http://39.134.24.165/dbiptv.sn.chinamobile.com/PLTV/88888888/224/3221226921/1.m3u8
CCTV16体育高清,http://39.134.24.161/dbiptv.sn.chinamobile.com/PLTV/88888890/224/3221226921/index.m3u8?   
CCTV16体育高清, http://39.134.24.162/dbiptv.sn.chinamobile.com/PLTV/88888890/224/3221226921/index.m3u8
CCTV16体育高清,http://jscbn.tx-cdn.gitv.tv/gitv_escape/G_CCTV-16-CQ/G_CCTV-16-CQ.m3u8
CCTV16体育高清,http://39.134.24.165/dbiptv.sn.chinamobile.com/PLTV/88888890/224/3221226921/index.m3u8
CCTV16体育高清,http://39.134.24.162/dbiptv.sn.chinamobile.com/PLTV/88888890/224/3221226921/index.m3u8
CCTV16体育高清,http://39.134.24.161/dbiptv.sn.chinamobile.com/PLTV/88888890/224/3221226921/index.m3u8?

CCTV17农广天地,http://111.59.63.32:9901/tsfile/live/1023_1.m3u8
CCTV17农广天地, http://jscbn.tx-cdn.gitv.tv/gitv_escape/G_CCTV-17-CQ/G_CCTV-17-CQ.m3u8
CCTV17农广天地, http://124.222.142.65:5678/zhibo/index.php?id=cctv17&xingguang=zhibo.m3u8
CCTV17农广天地, http://36.129.58.53:8008/paiptv/CCTV17-HD.m3u8
CCTV17农广天地 ,http://111.59.63.32:9901/tsfile/live/1023_1.m3u8
CCTV17农广天地,17,http://jscbn.tx-cdn.gitv.tv/gitv_escape/G_CCTV-17-CQ/G_CCTV-17-CQ.m3u8
CCTV17农广天地,http://jscbn.tx-cdn.gitv.tv/gitv_escape/G_CCTV-17-CQ/G_CCTV-17-CQ.m3u8

CCTV移动,http://newcntv.qcloudcdn.com/asp/hls/1200/0303000a/3/default/649e19038fa74514ab3f00febbcd6de0/1200.m3u8
CGTN新闻,http://live.cgtn.com/1000/prog_index.m3u8
CGTN纪录,https://livedoc.cgtn.com/500d/prog_index.m3u8
CGTN俄语,http://liveru.cgtn.com/1000r/prog_index.m3u8
CGTN俄语,http://news.cgtn.com/resource/live/russian/cgtn-r.m3u8
CGTN俄语,https://liveru.cgtn.com/1000r/prog_index.m3u8
CGTN拉美,http://livees.cgtn.com/1000e/prog_index.m3u8
CGTN法语,http://news.cgtn.com/resource/live/french/cgtn-f.m3u8
CGTN法语,https://livefr.cgtn.com/1000f/prog_index.m3u8
CGTN纪录,http://news.cgtn.com/resource/live/document/cgtn-doc.m3u8
CGTN英新,http://live.cgtn.com/500/prog_index.m3u8
CGTN英新,http://live.cgtn.com/1000/prog_index.m3u8
CGTN西语,http://livees.cgtn.com/500e/prog_index.m3u8
CGTN西语,http://livees.cgtn.com/1000e/prog_index.m3u8
CGTN西语,http://news.cgtn.com/resource/live/espanol/cgtn-e.m3u8
CGTN西语,https://livees.cgtn.com/1000e/prog_index.m3u8
CGTN阿语,http://livear.cgtn.com/1000a/prog_index.m3u8
CGTN阿语,http://news.cgtn.com/resource/live/arabic/cgtn-a.m3u8
CGTN阿语,https://livear.cgtn.com/1000a/prog_index.m3u8
CNA新闻,https://d2e1asnsl7br7b.cloudfront.net/7782e205e72f43aeb4a48ec97f66ebbe/index_5.m3u8
NHK世界,https://nhkwlive-ojp.akamaized.net/hls/live/2003459/nhkwlive-ojp-en/index_4M.m3u8
RTHK32,https://rthktv32-live.akamaized.net/hls/live/2036819/RTHKTV32/master.m3u8
东方影视,http://222.71.90.218:8888/newlive/live/hls/53/live.m3u8
书画频道,http://211.103.180.178:8234/live_hls/hdmi.m3u8
五星体育,http://222.71.90.218:8888/newlive/live/hls/56/live.m3u8
亚洲新闻,https://d2e1asnsl7br7b.cloudfront.net/7782e205e72f43aeb4a48ec97f66ebbe/index_5.m3u8
半岛新闻,http://live-hls-web-aje.getaj.net/AJE/01.m3u8
新闻综合,http://222.71.90.218:8888/newlive/live/hls/55/live.m3u8
直播中国,https://gcalic.v.myalicdn.com/gc/wgw05_1/index.m3u8?contentid=2820180516001
第一财经,http://222.71.90.218:8888/newlive/live/hls/57/live.m3u8
赣州综合,http://wb.jxgztv.com/live/gztv1.m3u8
都市剧场,http://222.71.90.218:8888/newlive/live/hls/51/live.m3u8
金砖中文,http://brics.bonus-tv.ru/cdn/brics/chinese/tracks-v1a1/index.m3u8
金砖英文,http://brics.bonus-tv.ru/cdn/brics/english/tracks-v1a1/index.m3u8

中国气象总台,http://hls.weathertv.cn/tslslive/qCFIfHB/hls/live_sd.m3u8
CHC高清电影,http://182.32.204.113:9901/tsfile/live/1005_1.m3u8?by=angtv
CHC家庭影院,http://182.32.204.113:9901/tsfile/live/1090_1.m3u8?by=angtv
CHC动6作电影,http://182.32.204.113:9901tp://36.129.58.53:8008/paiptv/TJWS-HD.m3u8
CCTV第一剧场,http://jscbn.tx-cdn.gitv.tv/gitv_escape/G_DIYIJC-CQ/G_DIYIJC-CQ.m3u8
CCTV第一剧场,http://112.132.181.221:9988/hls/61/index.m3u8
CCTV风云剧场,http://jscbn.tx-cdn.gitv.tv/gitv_escape/G_FENGYUNJC-CQ/G_FENGYUNJC-CQ.m3u8
CCTV风云剧场,http://112.132.181.221:9988/hls/58/index.m3u8
CCTV怀旧剧场,http://jscbn.tx-cdn.gitv.tv/gitv_escape/G_HUAIJIUJC-CQ/G_HUAIJIUJC-CQ.m3u8
CCTV风云足球,http://jscbn.tx-cdn.gitv.tv/gitv_escape/G_FENGSHANGZQ-CQ/G_FENGSHANGZQ-CQ.m3u8
CCTV央视台球,http://jscbn.tx-cdn.gitv.tv/gitv_escape/G_TAIQIU-CQ/G_TAIQIU-CQ.m3u8
CCTV兵器科技,http://jscbn.tx-cdn.gitv.tv/gitv_escape/G_BINGQIKJ-CQ/G_BINGQIKJ-CQ.m3u8
CCTV风云音乐,http://jscbn.tx-cdn.gitv.tv/gitv_escape/G_FENGYUNYY-CQ/G_FENGYUNYY-CQ.m3u8
CCTV高尔夫网球,http://jscbn.tx-cdn.gitv.tv/gitv_escape/G_CCTV-GOLF-CQ/G_CCTV-GOLF-CQ.m3u8
CCTV女性时尚,http://jscbn.tx-cdn.gitv.tv/gitv_escape/G_NVXINGSS-CQ/G_NVXINGSS-CQ.m3u8
CCTV女性时尚,http://39.134.24.165/dbiptv.sn.chinamobile.com/PLTV/88888888/224/3221226237/1.m3u8
CCTV文化精品,http://jscbn.tx-cdn.gitv.tv/gitv_escape/G_CCTV-WENHUA-CQ/G_CCTV-WENHUA-CQ.m3u8
CCTV世界地理,http://jscbn.tx-cdn.gitv.tv/gitv_escape/G_SHIJIEDL-CQ/G_SHIJIEDL-CQ.m3u8
CCTV电视指南,http://jscbn.tx-cdn.gitv.tv/gitv_escape/G_DIANSHIZN-CQ/G_DIANSHIZN-CQ.m3u8
CCTV4K超高清,http://jscbn.tx-cdn.gitv.tv/gitv_escape/G_CCTV-4K-HD/G_CCTV-4K-HD.m3u8
CCTV发现之旅,http://jscbn.ali-cdn.gitv.tv/gitv_escape/G_FAXIANZL/G_FAXIANZL.m3u8
CCTV老故事,http://jscbn.ali-cdn.gitv.tv/gitv_escape/G_LAOGUSHI/G_LAOGUSHI.m3u8
CCTV老故事,http://39.134.24.162/dbiptv.sn.chinamobile.com/PLTV/88888890/224/3221226236/index.m3u8?

??四川频道,#genre#
四川卫视,http://jscbn.tx-cdn.gitv.tv/gitv_escape/G_SICHUAN-CQ/G_SICHUAN-CQ.m3u8
四川新闻,https://live3.rxip.sc96655.com/live/SCTV-4H265_4000.m3u8
四川新闻,http://183.223.157.33:85/tsfile/live/1003_1.m3u8?key=txiptv
重庆卫视,http://jscbn.tx-cdn.gitv.tv/gitv_escape/G_CHONGQING-CQ/G_CHONGQING-CQ.m3u8
贵州卫视,http://jscbn.tx-cdn.gitv.tv/gitv_escape/G_GUIZHOU-CQ/G_GUIZHOU-CQ.m3u
乐至综合,http://rmlive.lzxrmtzx.com/live1/live1.m3u8?zsicd
乐至综合,http://175.155.106.72:89/live1/live1.m3u8
利州综合,http://tvfile.lzgbdst.com/nmip-media/channellive/channel106876/playlist.m3u8?zsicd
利州综合,http://tv.drs.lzgbdst.com:8100/channellive/lztv2.flv?zsicd
利州频道,http://tvfile.lzgbdst.com/nmip-media/channellive/channel106876/playlist.m3u8
利州频道,http://tv.drs.lzgbdst.com:8100/channellive/lztv2.flv
会东频道,http://112.45.133.129:90/live/xwzh.m3u8
会东频道,http://live.schdxww.com:90/live/xwzh.m3u8
自贡综合,http://110.189.153.160:1001/zhpd.flv
德阳新闻综合,http://scdytv.cn:1935/live/m_xwpd_livevideo/playlist.m3u8
甘孜综合,http://tv.drs.ganzitv.com:8100/channellive/gztv.flv
营山电视台,http://file.ysxtv.cn/cms/videos/nmip-media/channellive/channel4/playlist.m3u8?zsicd
松潘新闻综合,http://live.spccmc.com:90/live/spxwzh.m3u8?zsicd
泸县新闻综合,http://lxfile.lxxcb.cn/nmip-media/channellive/channel103799/playlist.m3u8?zsicd
洪雅新闻综合,http://117.172.215.250:8083/videos/live/35/39/GQVbrgob5CGJM/GQVbrgob5CGJM.M3U8
叙州综合,http://pili-live-hls.ybcxjd.com/jdh-live/2108111201035597.m3u8?zsicd
万源新闻综合,http://live.wanyuannews.com/wytv/hd/live.m3u8
松潘频道,http://live.spccmc.com:90/live/spxwzh.m3u8
松潘频道,https://live3.rxip.sc96655.com/live/spxwzhpdH264_2000.m3u8
汶川新闻综合,http://live.iwcmt.cn:90/live/zhxw.m3u8
汉源综合,http://live.hyxrmt.com:85/live/xwpd.m3u8
泸县综合,http://lxfile.lxxcb.cn/nmip-media/channellive/channel103799/playlist.m3u8
广安新闻综合,http://live1.gatv.com.cn:85/live/XWZH.m3u8
广安文旅乡村,http://live1.gatv.com.cn:85/live/GGPD_ggpdzm.m3u8
达州新闻综合,http://tv.drs.dzxw.net/channellive/xwzhpd-dz1.flv
达州公共频道,http://tv.drs.dzxw.net/channellive/ggpd-dz2.flv
达州通川频道,http://tv.drs.dzxw.net/channellive/tcpd-dz3.flv
自贡文化生活,http://110.189.153.160:1002/ggpd.flv
南部综合,http://pili-live-rtmp.148.i2863.com/i2863-148/live_148_811389.m3u8
黑水频道,http://live.schstv.com:90/live/xwzh.m3u8
金川新闻,http://live.jinchuanrmt.com:90/live/zhxw.m3u8
金川乡村,http://live.jinchuanrmt.com:90/live/jcxc.m3u8
小金综合,http://xjlive.xjsc.gov.cn:8091/live/xwpd.m3u8
富顺综合,http://pili-live-rtmp.145.i2863.com/i2863-145/live_145_906964.m3u8
青神综合,http://lmt.scqstv.com/live1/live1.m3u8
康定频道,http://m3u8-kd.channel.ganzitv.com/nmip-media-yajiang/channellive/channel100663/playlist.m3u8
叙永频道,http://luzhi.xuyongrongmei.com:1935/live/_definst_/xyxw/playlist.m3u8
泸州科教生活,http://m3u8.channel.luzhoubs.com/nmip-media/channellive/channel103074/playlist.m3u8?zsicd
德阳文旅科教,http://scdytv.cn:1935/live/m_ggpd_livevideo/playlist.m3u8?zsicd
长宁综合,http://cnpull.sccnfb.com/live/123456.m3u8?zsicd
什邡频道,http://live.sfrmt.com:85/live/zhpd.m3u8?zsicd
泸州新闻综合,http://m3u8.channel.luzhoubs.com/nmip-media/channellive/channel106011/playlist.m3u8?zsicd
马尔康频道,http://live.zmmek.com:90/live/zhxw.m3u8
遂宁综合,https://live3.rxip.sc96655.com/live/snxwzhHDH265_4000.m3u8
天全新闻,https://live3.rxip.sc96655.com/live/tqzh_2000.m3u8
通川频道,https://live3.rxip.sc96655.com/live/xcxwzhH264_2000.m3u8
通江综合,https://live3.rxip.sc96655.com/live/tjxwH265_4000.m3u8
万源新闻综合,https://live3.rxip.sc96655.com/live/wyxwzh_2000.m3u8
旺苍综合,https://live3.rxip.sc96655.com/live/wcxwzhH265_4000.m3u8
温江综合频道,https://live3.rxip.sc96655.com/live/wjytH264_2000.m3u8
武胜综合,https://live3.rxip.sc96655.com/live/wsxw_2000.m3u8
五通桥频道,https://live3.rxip.sc96655.com/live/wtqxwzh_2000.m3u8
西昌频道,https://live3.rxip.sc96655.com/live/xctHD_2000.m3u8
西充综合,https://live3.rxip.sc96655.com/live/xczh_2000.m3u8
喜德频道,https://live3.rxip.sc96655.com/live/xdxw_4000.m3u8
新都综合频道,https://live3.rxip.sc96655.com/live/xdzhpd_2000.m3u8
新津频道,https://live3.rxip.sc96655.com/live/xjzh_4000.m3u8
兴文电视台,https://live3.rxip.sc96655.com/live/xwt_2000.m3u8
叙永电视台,https://live3.rxip.sc96655.com/live/xyxw_2000.m3u8
叙州新闻综合,https://live3.rxip.sc96655.com/live/ybx_2000.m3u8
宣汉综合,https://live3.rxip.sc96655.com/live/xhxwzh_2000.m3u8
雅安公共,https://live3.rxip.sc96655.com/live/yagg_2000.m3u8
雅安新闻综合,https://live3.rxip.sc96655.com/live/yazh_2000.m3u8
雅安雨城,https://live3.rxip.sc96655.com/live/ycpd_2000.m3u8
盐边电视台,https://live3.rxip.sc96655.com/live/ybtgq_2000.m3u8
盐亭-1,https://live3.rxip.sc96655.com/live/ytzh_2000.m3u8
雁江频道,https://live3.rxip.sc96655.com/live/yjxw_2000.m3u8
仪陇新闻综合,https://live3.rxip.sc96655.com/live/ylxw_2000.m3u8
宜宾公共,https://live3.rxip.sc96655.com/live/ybetH264_2000.m3u8
宜宾新闻综合,https://live3.rxip.sc96655.com/live/ybytH264_2000.m3u8
营山,https://live3.rxip.sc96655.com/live/ysxw_2000.m3u8
越西综合,https://live3.rxip.sc96655.com/live/yxt_4000.m3u8
岳池,https://live3.rxip.sc96655.com/live/ycxw_2000.m3u8
昭化综合,https://live3.rxip.sc96655.com/live/zhxwzh_2000.m3u8
中江新闻综合,https://live3.rxip.sc96655.com/live/zjxwzh_2000.m3u8
资阳新闻综合,https://live3.rxip.sc96655.com/live/zyxwzh_2000.m3u8
资中综合,https://live3.rxip.sc96655.com/live/zzzh_2000.m3u8
自贡文化生活,https://live3.rxip.sc96655.com/live/zggg_4000.m3u8
自贡综合,https://live3.rxip.sc96655.com/live/zgxw_4000.m3u8
郫县新闻综合,https://live3.rxip.sc96655.com/live/pxds1_2000.m3u8
荥经电视台,https://live3.rxip.sc96655.com/live/xjdst_2000.m3u8
阆中综合,https://live3.rxip.sc96655.com/live/lzxw_2000.m3u8
沐川综合,https://live3.rxip.sc96655.com/live/mcxw_2000.m3u8
泸定综合频道,https://live3.rxip.sc96655.com/live/ldxw_4000.m3u8
泸县综合,https://live3.rxip.sc96655.com/live/lxxwzh_2000.m3u8
珙县新闻,https://live3.rxip.sc96655.com/live/gxzh_2000.m3u8
梓潼综合,https://live3.rxip.sc96655.com/live/ztgq_2000.m3u8
犍为新闻综合,https://live3.rxip.sc96655.com/live/qwxwzh_2000.m3u8
筠连TV,https://live3.rxip.sc96655.com/live/ylyt_2000.m3u8
川网导视,https://live3.rxip.sc96655.com/live/cwdsHDH264_4000.m3u8
精品导视,https://live3.rxip.sc96655.com/live/jpdsH265_4000.m3u8
沙湾融媒,https://live3.rxip.sc96655.com/live/swxwzh_2000.m3u8

??河北频道,#genre#
河北都市,http://tv.pull.hebtv.com/jishi/dushipindao.m3u8?t=2510710360&k=0a371e84fa6980927f5b617687e1ad11
河北经济,http://tv.pull.hebtv.com/jishi/jingjishenghuo.m3u8?t=2510710360&k=5ae52d7ff5118e85c19a12237a3518cb
河北公共,http://tv.pull.hebtv.com/jishi/gonggongpindao.m3u8?t=2510710360&k=753a034a499730b224c99667ec91eb4e
河北农民,http://tv.pull.hebtv.com/jishi/nongminpindao.m3u8?t=2510710360&k=1c19f1e16256d45e9fdcb9b6725647cc
河北少儿科教,http://tv.pull.hebtv.com/jishi/shaoerkejiao.m3u8?t=2510710360&k=35e8479f6ac81ee25729454e88afa17c
河北三佳购物,http://tv.pull.hebtv.com/jishi/sanjiagouwu.m3u8?t=2510710360&k=bffb5db1bd18d258572e827a3de74be0
河北影视剧,http://tv.pull.hebtv.com/jishi/yingshijupindao.m3u8?t=2510710360&k=22da13f91d94e04e4935c5ed39dbdb62
河北|石家庄新闻,http://pluslive1.sjzntv.cn/xmzh/HD/live.m3u8
河北|石家庄娱乐,http://pluslive1.sjzntv.cn/yule/HD2/live.m3u8
河北|石家庄都市,http://pluslive1.sjzntv.cn/dushi/HD4/live.m3u8
河北|石家庄生活,http://pluslive1.sjzntv.cn/shenghuo/HD3/live.m3u8
河北|鹿泉综合,https://jwliveqxzb.hebyun.com.cn/luquanyi/luquanyi.m3u8
河北|鹿泉二套,https://jwliveqxzb.hebyun.com.cn/luquaner/luquaner.m3u8
河北|邯郸新闻综合,http://live.hd.hdbs.cn/video/s10001-2021hdxwzh/index.m3u8
河北|邯郸科技教育,http://live.hd.hdbs.cn/video/s10001-2021hdkjjy/index.m3u8
河北|邯郸公共,http://live.hd.hdbs.cn/video/s10001-2021hdgg/index.m3u8
河北|涉县新闻综合,https://jwcdnqx.hebyun.com.cn/live/SXTV1/1500k/tzwj_video.m3u8
河北|保定定州国学影视,https://jwliveqxzb.hebyun.com.cn/yspd/yspd.m3u8
河北|赞皇电视台,http://p2bj.vzan.com/slowlive/435455898015647946/live.m3u8

??上海频道,#genre#
崇明电视台,https://pili-live-hls.wdit.com.cn/wditlive/c038f4fafbdf4f97ba74c74ad67259b931ee.m3u8?zshangd
嘉定电视台,https://pili-live-hls.wdit.com.cn/wditlive/15472c98517744b994e85c9c60cc93cf6a3b.m3u8?zshangd
书画频道,http://211.103.180.178:8234/live_hls/hdmi.m3u8
点撑财经,https://wsvideo.aniu.tv/live/aniu/playlist.m3u8

??陕西频道,#genre#
安康综合,http://mmitv.top/test/tianma.php?id=akzh
安康公共,http://mmitv.top/test/tianma.php?id=akgg
安康教育,http://mmitv.top/test/tianma.php?id=akjy
陕西新闻资讯,http://39.134.24.165/dbiptv.sn.chinamobile.com/PLTV/88888888/224/3221226357/1.m3u8
陕西公共,http://39.134.24.165/dbiptv.sn.chinamobile.com/PLTV/88888888/224/3221226361/1.m3u8
陕西影视,http://39.134.24.165/dbiptv.sn.chinamobile.com/PLTV/88888888/224/3221226360/1.m3u8
陕西体育休闲,http://39.134.24.165/dbiptv.sn.chinamobile.com/PLTV/88888888/224/3221226363/1.m3u8
陕西汉中略阳,http://39.134.24.165/dbiptv.sn.chinamobile.com/PLTV/88888888/224/3221226322/1.m3u8
陕西咸阳,http://39.134.24.165/dbiptv.sn.chinamobile.com/PLTV/88888888/224/3221226372/1.m3u8
陕西铜川,http://39.134.24.165/dbiptv.sn.chinamobile.com/PLTV/88888888/224/3221226379/1.m3u8
陕西汉中城固,http://39.134.24.165/dbiptv.sn.chinamobile.com/PLTV/88888888/224/3221226920/1.m3u8
陕西新闻,http://sncbn.ch-cdn.gitv.tv/gitv_escape/G_SHANXI-1-HQ/G_SHANXI-1-HQ.m3u8
陕西青春,http://sncbn.ch-cdn.gitv.tv/gitv_escape/G_SHANXI-2-HQ/G_SHANXI-2-HQ.m3u8

??黑龙江频道,#genre#
哈尔滨影,http://stream.hrbtv.net/yspd/sd/live.m3u8?zheild
哈尔滨新闻综合,http://stream.hrbtv.net/xwzh/sd/live.m3u8?zheild
哈尔滨娱乐,http://stream.hrbtv.net/ylpd/sd/live.m3u8?zheild
哈尔滨生活,http://stream.hrbtv.net/shpd/sd/live.m3u8?zheild

??青海频道,#genre#
青海|经济生活,http://stream.qhbtv.com/qhsh/playlist.m3u8
青海|都市频道,http://stream.qhbtv.com/qhds/playlist.m3u8
青海|囊谦综合,http://pili-live-hls-qhnqapp2020.sobeylive.com/qhnqapp2020/qhnqtv01.m3u8

??山西频道,#genre#
山西|黄河电视台,http://liveflash.sxrtv.com/live/huanghe.m3u8?sub_m3u8=true&edge_slice=true
山西|山西经济科技,http://liveflash.sxrtv.com/live/sxfinance.m3u8?sub_m3u8=true&edge_slice=true
山西|山西社会与法治,http://liveflash.sxrtv.com/live/sxedu.m3u8?sub_m3u8=true&edge_slice=true
山西|山西文体生活,http://liveflash.sxrtv.com/live/sxpublic.m3u8?sub_m3u8=true&edge_slice=true
山西|山西黄河,http://liveflash.sxrtv.com/live/huanghe.m3u8?sub_m3u8=true&edge_slice=true
山西|太原新闻综合,http://live.cooltv.top/tv/tide.php?id=tyxwzh
山西|太原经济生活,http://live.cooltv.top/tv/tide.php?id=tyjjsh
太原社教法制,http://live.cooltv.top/tv/tide.php?id=tysjfz
山西|太原文体,http://live.cooltv.top/tv/tide.php?id=tywt
山西|晋中公共频道,http://jzlive.jztvnews.com:90/live/jzgg.m3u8
山西|晋中新闻频道,http://jzlive.jztvnews.com:90/live/jzzh.m3u8
山西|运城公共频道,http://live.0359tv.com/lsdream/t667aTY/1000/live.m3u8
山西|运城科技教育,http://live.0359tv.com/lsdream/p5eq48m/1000/live.m3u8
山西|优购物,https://tvliveapp.ugoshop.com/ugotvlive/ugotv01.m3u8?auth_key=2274934552-0-0-dc8c9301c2face6c71c0851709bfac61
山西|高平综合,http://live.gprmt.cn/gpnews/hd/live.m3u8
山西|吉县新闻综合,http://jxlive.jxrmtzx.com:8091/live/xwzh.m3u8
山西|灵石新闻综合,https://live-stream.lsxrmtzx.com/live/video.m3u8
山西|潞城新闻综合,http://59.48.42.6:62204/lucheng.m3u8
山西|运城新闻综合,http://live.0359tv.com/lsdream/ss4Lj11/1000/live.m3u8
山西|山西经济,http://liveflash.sxrtv.com/live/sxfinance.m3u8?sub_m3u8=true&edge_slice=true

??安徽频道,#genre#
淮南新闻,http://stream.0554news.com/hnds1/sd/live.m3u8?zanhd
淮南公共,http://stream.0554news.com/hnds2/sd/live.m3u8?zanhd
农业科教,http://mmitv.top/test/ahtv.php?id=14
农业科教,http://snapshot-live-ht.ahtv.cn/atvrtmp/143_q_live161829358013848.m3u8
经济生活,http://mmitv.top/test/ahtv.php?id=12
经济生活,http://snapshot-live-ht.ahtv.cn/atvrtmp/143_q_live161829325295495.m3u8
经济生活,http://112.30.194.221:20080/live/eac499adad7b49ff9cfa79ba84693959/hls.m3u8
综艺体育,http://mmitv.top/test/ahtv.php?id=17
综艺体育,http://snapshot-live-ht.ahtv.cn/atvrtmp/143_q_live161829415240627.m3u8
宿州科教,http://live.ahsz.tv/video/s10001-kxjy/index.m3u8
宿州新闻,http://live.ahsz.tv/video/s10001-szzh/index.m3u8
宿州公共,http://live.ahsz.tv/video/s10001-ggpd/index.m3u8
合肥公共,http://api2.52tb.xyz/info?id=588&token=20230405tndmhg
合肥新闻,http://api2.52tb.xyz/info?id=587&token=20230405tndmhg
固镇新闻,http://www.guzhenm.com:7001/hls/hd-live.m3u8?zanhd
灵璧综合,http://live.cms.anhuinews.com/video/s10003-lbtv/index.m3u8?zanhd
宿州新闻综合,http://live.ahsz.tv/video/s10001-szzh/index.m3u8?zanhd
霍山综合,http://ahhsdb.chinashadt.com:1936/live/stream:ahws.stream/playlist.m3u8?zanhd
安徽导视,https://livehls1.appcoo.com/liveshopping/949E0A98C9D0C311/6D925141BC1F8C28/index.m3u8
歙县综合,http://112.30.194.221:20080/live/4b3024127d1c472986ccdcb454f81a9f/hls.m3u8?zanhd

??河南频道,#genre#
焦作综合频道,http://zhpull.dxhmt.cn/jiaozuo/b75a92c9503e47cf9e89f7ff247b65f2/playlist.m3u8?zhend
焦作公共频道,http://zhpull.dxhmt.cn/jiaozuo/29b65b69130c4ef1a3283cc7b913da05/playlist.m3u8?zhend
焦作教育频道,http://zhpull.dxhmt.cn/jiaozuo/9c10435ad24c409baee219ec289e17d0/playlist.m3u8?zhend
睛彩焦作频道,http://zhpull.dxhmt.cn/jiaozuo/c5eb91b47f0e42318f34fc0247c8acaa/playlist.m3u8?zhend

??云南频道,#genre#
云南都市,http://yncbn.ks-cdn.gitv.tv/gitv_escape/G_YNTV-2/G_YNTV-2.m3u8
云南娱乐,http://yncbn.ks-cdn.gitv.tv/gitv_escape/G_YNTV-3/G_YNTV-3.m3u8
云南影视,http://yncbn.ks-cdn.gitv.tv/gitv_escape/G_YNTV-5/G_YNTV-5.m3u8
云南康旅,http://yncbn.ks-cdn.gitv.tv/gitv_escape/G_YNTV-6/G_YNTV-6.m3u8

??杭州频道,#genre#
杭州综合,http://124.222.142.65:5678/zhibo/index.php?id=hzzh
杭州明珠,http://124.222.142.65:5678/zhibo/index.php?id=hzmz
杭州生活,http://124.222.142.65:5678/zhibo/index.php?id=hzsh
杭州影院,http://124.222.142.65:5678/zhibo/index.php?id=hzys
杭州少儿体育,http://124.222.142.65:5678/zhibo/index.php?id=hzse

??广西频道,#genre#
贺州综合,http://zhz.gxhzxw.com:2935/live/HZXW-HD/playlist.m3u8
广西都市,http://111.59.63.32:9901/tsfile/live/1005_1.m3u8

??江苏频道,#genre#
江苏体育,http://jscbn.ali-cdn.gitv.tv/gitv_escape/G_JSTY/G_JSTY.m3u8
江苏教育,http://jscbn.ali-cdn.gitv.tv/gitv_escape/G_JSJY/G_JSJY.m3u8
江苏城市,http://jscbn.ali-cdn.gitv.tv/gitv_escape/G_JSCS/G_JSCS.m3u8
江苏新闻,http://jscbn.ali-cdn.gitv.tv/gitv_escape/G_JSGG/G_JSGG.m3u8
江苏综艺,http://jscbn.ali-cdn.gitv.tv/gitv_escape/G_JSZY/G_JSZY.m3u8

??山东频道,#genre#
山东齐鲁,http://livealone.iqilu.com/iqilu/qlpdhjOF03kn.m3u8
山东齐鲁,http://yt.xypxe.com:9901/tsfile/live/1001_1.m3u8
山东齐鲁,http://221.2.146.228:8888/newlive/live/hls/49/live.m3u8
山东农科,http://yt.xypxe.com:9901/tsfile/live/1007_1.m3u8
山东农科,http://livealone.iqilu.com/iqilu/nkpdhjOF03kn.m3u8
山东体育,http://yt.xypxe.com:9901/tsfile/live/1006_1.m3u8
山东少儿,http://yt.xypxe.com:9901/tsfile/live/1008_1.m3u8
山东综艺,http://yt.xypxe.com:9901/tsfile/live/1003_1.m3u8
山东综艺,http://221.214.140.137:9901/tsfile/live/1002_1.m3u8
山东文旅,http://yt.xypxe.com:9901/tsfile/live/1005_1.m3u8
山东文旅,http://221.2.146.228:8888/newlive/live/hls/50/live.m3u8
烟台经济科技,http://live.yantaitv.cn/live/27f84144e95a4652ae9e5c211b2a6b55/405f3e33ba384aa0a16014d0becd1261-1.m3u8
烟台新闻综合,http://live.yantaitv.cn/live/3e81a8879da44c5dadf3bd9c10468e1c/9b776d420ee4438199b7657c8eb88f07-1.m3u8
青州综合,http://sdqz.chinashadt.com:2036/live/stream:1.stream/playlist.m3u8
青州文化旅游,http://sdqz.chinashadt.com:2036/live/stream:3.stream/playlist.m3u8
山东生活,http://221.2.146.228:8888/newlive/live/hls/51/live.m3u8
烟台影视频道,http://live.yantaitv.cn/live/e9f1d9045d474c31884d13fa4ffbbd16/a4a9b3704d854756907845107cc56129-1.m3u8
临沂新闻综合,https://m3u8-channel.lytv.tv/nmip-media/channellive/channel111841/playlist.m3u8
临沂公共,https://m3u8-channel.lytv.tv/nmip-media/channellive/channel113571/playlist.m3u8
临沂农科频道,https://m3u8-channel.lytv.tv/nmip-media/channellive/channel115062/playlist.m3u8
山东卫视,http://livealone.iqilu.com/iqilu/sdtvhjOF03kn.m3u8
山东新闻,http://livealone.iqilu.com/iqilu/ggpdhjOF03kn.m3u8
山东新闻,http://221.2.146.228:8888/newlive/live/hls/54/live.m3u8
山东教育卫视,http://yt.xypxe.com:9901/tsfile/live/1010_1.m3u8
山东公共,http://yt.xypxe.com:9901/tsfile/live/1002_1.m3u8
QTV-1,http://yt.xypxe.com:9901/tsfile/live/1011_1.m3u8
QTV-2,http://yt.xypxe.com:9901/tsfile/live/1012_1.m3u8
QTV-3,http://yt.xypxe.com:9901/tsfile/live/1013_1.m3u8
QTV-4,http://yt.xypxe.com:9901/tsfile/live/1014_1.m3u8
QTV-5,http://yt.xypxe.com:9901/tsfile/live/1015_1.m3u8
QTV-6,http://yt.xypxe.com:9901/tsfile/live/1016_1.m3u8
烟台公共,http://live.yantaitv.cn/live/e50f104a4ffe4a41b2217cbda534146f/d86092e69df94668b33390278b061700-1.m3u8?shandd
枣庄新闻综合,http://stream.zztvzd.com/1/sd/live.m3u8?shandd
枣庄生活,http://stream.zztvzd.com/2/sd/live.m3u8?shandd
枣庄公共,http://stream.zztvzd.com/3/sd/live.m3u8?shandd
成武综艺,http://com.net.rr.nu/v/iqilu.php?id=hzcwzy
曹县综合,http://com.net.rr.nu/v/iqilu.php?id=hzcxzh
东明TV-1,http://com.net.rr.nu/v/iqilu.php?id=hzdmxw
定陶TV-1,http://com.net.rr.nu/v/iqilu.php?id=hzdt1
定陶TV-2,http://com.net.rr.nu/v/iqilu.php?id=hzdt2
JYTV新闻,http://com.net.rr.nu/v/iqilu.php?id=hzjyxw
MDTV-1,http://com.net.rr.nu/v/iqilu.php?id=hzmdxw
MDTV-2,http://com.net.rr.nu/v/iqilu.php?id=hzmdzy
单县综合,http://com.net.rr.nu/v/iqilu.php?id=hzsxzh
郓城新闻,http://com.net.rr.nu/v/iqilu.php?id=hzycxw
郓城综艺,http://com.net.rr.nu/v/iqilu.php?id=hzyczy

??贵州频道,#genre#
松新闻,http://live.strmtzx.cn/stxw/sd/live.m3u8?zguizd
七星关电视台,https://p8.vzan.com:443/slowlive/147077707554082780/live.m3u8
道真新闻综合,http://live.dzrmtzx.org.cn:90/live/dspd_1M.m3u8
松桃新闻,http://live.strmtzx.cn/stxw/sd/live.m3u8

汪汪队长,#genre#
汪汪队长001,https://newcntv.qcloudcdn.com/asp/hls/1200/0303000a/3/default/f96cb7c6f8354da1ab9c67a92bd03296/1200.m3u8
汪汪队长002,https://newcntv.qcloudcdn.com/asp/hls/1200/0303000a/3/default/11a3110e23b546878b9fc34ab087fc99/1200.m3u8
汪汪队长003,https://newcntv.qcloudcdn.com/asp/hls/1200/0303000a/3/default/a076bfa8f5534589a6a32a1211d526f6/1200.m3u8
汪汪队长004,https://newcntv.qcloudcdn.com/asp/hls/1200/0303000a/3/default/1e628c3b1c7f41ef9569439bbc20c3b1/1200.m3u8
汪汪队长005,https://newcntv.qcloudcdn.com/asp/hls/1200/0303000a/3/default/a02cb85d5c0a4840ae320f189fef9ad5/1200.m3u8
汪汪队长006,https://newcntv.qcloudcdn.com/asp/hls/1200/0303000a/3/default/b361d95253e04a75b5c262c067e26e7a/1200.m3u8
汪汪队长007,https://newcntv.qcloudcdn.com/asp/hls/1200/0303000a/3/default/d1ae53296a16475c8bc2667fccf1718f/1200.m3u8
汪汪队长008,https://newcntv.qcloudcdn.com/asp/hls/1200/0303000a/3/default/cb462eedab924864bb52a076eff3f35a/1200.m3u8
汪汪队长009,https://newcntv.qcloudcdn.com/asp/hls/1200/0303000a/3/default/667dc8e9785047f4a2bf2008759a0d41/1200.m3u8
汪汪队长010,https://newcntv.qcloudcdn.com/asp/hls/1200/0303000a/3/default/c7bdfb0bacfc4b76b6492b371645bec9/1200.m3u8
汪汪队长011,https://newcntv.qcloudcdn.com/asp/hls/1200/0303000a/3/default/104718fde00347c0bdf3892056f6c424/1200.m3u8
汪汪队长012,https://newcntv.qcloudcdn.com/asp/hls/1200/0303000a/3/default/10bcc3bdf9534b86a3ecc558eb88e8c1/1200.m3u8
汪汪队长013,https://newcntv.qcloudcdn.com/asp/hls/1200/0303000a/3/default/9e862c5952b24af6b11e2ff5c82e3ef6/1200.m3u8
汪汪队长014,https://newcntv.qcloudcdn.com/asp/hls/1200/0303000a/3/default/bf22bd5354eb4eceb751698f1197a443/1200.m3u8
汪汪队长015,https://newcntv.qcloudcdn.com/asp/hls/1200/0303000a/3/default/e708bd144bc040968a0697d401c55721/1200.m3u8
汪汪队长016,https://newcntv.qcloudcdn.com/asp/hls/1200/0303000a/3/default/e358bc63629a4da0b571f09c1758632f/1200.m3u8
汪汪队长017,https://newcntv.qcloudcdn.com/asp/hls/1200/0303000a/3/default/aab9e8b4cb15456395344f0bf506b7e5/1200.m3u8
??熊熊乐园,#genre#
熊熊乐园01,https://newcntv.qcloudcdn.com/asp/hls/1200/0303000a/3/default/b333914bfe2b49d793d41f3233505f5f/1200.m3u8
熊熊乐园02,https://newcntv.qcloudcdn.com/asp/hls/1200/0303000a/3/default/7d35b256e4794918837e184d35f34492/1200.m3u8
熊熊乐园03,https://newcntv.qcloudcdn.com/asp/hls/1200/0303000a/3/default/8da51eedd80c4c0b98765b20d1729d42/1200.m3u8
熊熊乐园04,https://newcntv.qcloudcdn.com/asp/hls/1200/0303000a/3/default/e86d503179254fc0ba5ebb6f44103d9d/1200.m3u8
熊熊乐园05,https://newcntv.qcloudcdn.com/asp/hls/1200/0303000a/3/default/3f437da4d62e4708bc8892cd6f3c9bd8/1200.m3u8
熊熊乐园06,https://newcntv.qcloudcdn.com/asp/hls/1200/0303000a/3/default/7e38bf0a4c274a3c98abe1d79ca7c8ef/1200.m3u8
熊熊乐园07,https://newcntv.qcloudcdn.com/asp/hls/1200/0303000a/3/default/a14f86e6e1434908a12fd00a2c8b0b73/1200.m3u8
熊熊乐园08,https://newcntv.qcloudcdn.com/asp/hls/1200/0303000a/3/default/6a7b458f35cd49a390faa0378d4ecde5/1200.m3u8
熊熊乐园09,https://newcntv.qcloudcdn.com/asp/hls/1200/0303000a/3/default/6a35f12e8fb6420181c83cd1a847206b/1200.m3u8
熊熊乐园10,https://newcntv.qcloudcdn.com/asp/hls/1200/0303000a/3/default/34cf417bf8d64ce8a993e8c5db16b914/1200.m3u8
熊熊乐园11,https://newcntv.qcloudcdn.com/asp/hls/1200/0303000a/3/default/f966ee5dac0d4393bcdd2483b24d06a3/1200.m3u8
熊熊乐园12,https://newcntv.qcloudcdn.com/asp/hls/1200/0303000a/3/default/70344cd85dc34abf8400eb9738bec779/1200.m3u8
熊熊乐园13,https://newcntv.qcloudcdn.com/asp/hls/1200/0303000a/3/default/3976afaa79a14ede8dcf818ead874ac1/1200.m3u8
熊熊乐园14,https://newcntv.qcloudcdn.com/asp/hls/1200/0303000a/3/default/50a132bdc16e47cfb6e292ace9dde5ee/1200.m3u8
熊熊乐园15,https://newcntv.qcloudcdn.com/asp/hls/1200/0303000a/3/default/8336c7ea1fd04a98aeb5bab0350f9855/1200.m3u8
熊熊乐园16,https://newcntv.qcloudcdn.com/asp/hls/1200/0303000a/3/default/5ed717fd676042cfb4c145423e1bb31b/1200.m3u8
熊熊乐园17,https://newcntv.qcloudcdn.com/asp/hls/1200/0303000a/3/default/54371858578a45d9b9de4b64f81863eb/1200.m3u8
熊熊乐园18,https://newcntv.qcloudcdn.com/asp/hls/1200/0303000a/3/default/1e77c23aef1a4defa52bc76a56ac35bc/1200.m3u8
熊熊乐园19,https://newcntv.qcloudcdn.com/asp/hls/1200/0303000a/3/default/6c9cd714ab4b4a4b9695c17766470ee8/1200.m3u8
熊熊乐园20,https://newcntv.qcloudcdn.com/asp/hls/1200/0303000a/3/default/97d9d7f096bc4b90bcdaf2b7ce9ea556/1200.m3u8
熊熊乐园21,https://newcntv.qcloudcdn.com/asp/hls/1200/0303000a/3/default/c5c9a732d2dd4179828895fb75a3ca08/1200.m3u8
熊熊乐园22,https://newcntv.qcloudcdn.com/asp/hls/1200/0303000a/3/default/9a7401b1279a4fa09135deaab29bf51d/1200.m3u8
熊熊乐园23,https://newcntv.qcloudcdn.com/asp/hls/1200/0303000a/3/default/3cfd36364d804fee8599aa72b970e9cd/1200.m3u8
熊熊乐园24,https://newcntv.qcloudcdn.com/asp/hls/1200/0303000a/3/default/ed010caa1668481ab5a7250291bb6f33/1200.m3u8
熊熊乐园25,https://newcntv.qcloudcdn.com/asp/hls/1200/0303000a/3/default/adb82894c295447e86d12aeccdd17d50/1200.m3u8
熊熊乐园26,https://newcntv.qcloudcdn.com/asp/hls/1200/0303000a/3/default/4404b8b709f84c7fa045a0901f23a133/1200.m3u8
熊熊乐园27,https://newcntv.qcloudcdn.com/asp/hls/1200/0303000a/3/default/7e7b56d0d35a44dc807b9888cc37bce0/1200.m3u8
熊熊乐园28,https://newcntv.qcloudcdn.com/asp/hls/1200/0303000a/3/default/6b9d91ae03eb4348a9270aa0e5018135/1200.m3u8
熊熊乐园29,https://newcntv.qcloudcdn.com/asp/hls/1200/0303000a/3/default/59c667667d2349c587db921d3f639223/1200.m3u8
熊熊乐园30,https://newcntv.qcloudcdn.com/asp/hls/1200/0303000a/3/default/473591a6614e4a769ad912fbf58e79da/1200.m3u8
熊熊乐园31,https://newcntv.qcloudcdn.com/asp/hls/1200/0303000a/3/default/8a99941f33164ea3aa11d5243a4a93ad/1200.m3u8
熊熊乐园32,https://newcntv.qcloudcdn.com/asp/hls/1200/0303000a/3/default/84ab44d3c9af4460a1a9981a22489417/1200.m3u8
熊熊乐园33,https://newcntv.qcloudcdn.com/asp/hls/1200/0303000a/3/default/1d01816b5ae945bea728f10ee99d7c41/1200.m3u8
熊熊乐园34,https://newcntv.qcloudcdn.com/asp/hls/1200/0303000a/3/default/ef0bb93b6d9a44f6b68f7abc15770a9e/1200.m3u8
熊熊乐园35,https://newcntv.qcloudcdn.com/asp/hls/1200/0303000a/3/default/5b0e9527423542efbe1ab81c3701c20e/1200.m3u8
熊熊乐园36,https://newcntv.qcloudcdn.com/asp/hls/1200/0303000a/3/default/be17a82213094c1284570913c1cce887/1200.m3u8
熊熊乐园37,https://newcntv.qcloudcdn.com/asp/hls/1200/0303000a/3/default/d9925bccfeb84ab6ab090d56547a7a2d/1200.m3u8
熊熊乐园38,https://newcntv.qcloudcdn.com/asp/hls/1200/0303000a/3/default/f5148f0035d44d77b74aa58aa6d57c18/1200.m3u8
熊熊乐园39,https://newcntv.qcloudcdn.com/asp/hls/1200/0303000a/3/default/6cde3ec7780446e9a834a35772378ff8/1200.m3u8
熊熊乐园40,https://newcntv.qcloudcdn.com/asp/hls/1200/0303000a/3/default/1c03ccf0e34b4476a80c2396ffe99a29/1200.m3u8
熊熊乐园41,https://newcntv.qcloudcdn.com/asp/hls/1200/0303000a/3/default/f986f8de576f487fb1febdcc7dfa87d8/1200.m3u8
熊熊乐园42,https://newcntv.qcloudcdn.com/asp/hls/1200/0303000a/3/default/c99361cb40a9457c9ca95beab9c780af/1200.m3u8
熊熊乐园43,https://newcntv.qcloudcdn.com/asp/hls/1200/0303000a/3/default/e9dbad5b80884597a721947629a9b169/1200.m3u8
熊熊乐园44,https://newcntv.qcloudcdn.com/asp/hls/1200/0303000a/3/default/e0a3c64fa73947289e5664984f4cf5e2/1200.m3u8
熊熊乐园45,https://newcntv.qcloudcdn.com/asp/hls/1200/0303000a/3/default/cea468a9e46f47f5bd232aef671a7d8e/1200.m3u8
熊熊乐园46,https://newcntv.qcloudcdn.com/asp/hls/1200/0303000a/3/default/f185a4cb6fec4e5fac0b7c3bda661cfa/1200.m3u8
熊熊乐园47,https://newcntv.qcloudcdn.com/asp/hls/1200/0303000a/3/default/1b3716f4a8ac42fda150b24e9266e7f2/1200.m3u8
熊熊乐园48,https://newcntv.qcloudcdn.com/asp/hls/1200/0303000a/3/default/1e3bb6fcc0b642d896b0bb51514a3545/1200.m3u8
熊熊乐园49,https://newcntv.qcloudcdn.com/asp/hls/1200/0303000a/3/default/4f7fa80c6686462cb3afcf9ce48b7678/1200.m3u8
熊熊乐园50,https://newcntv.qcloudcdn.com/asp/hls/1200/0303000a/3/default/f93cb9edd30544b78797b6dce897dbdc/1200.m3u8
熊熊乐园51,https://newcntv.qcloudcdn.com/asp/hls/1200/0303000a/3/default/7fc7a246576744e1b032622846c1fd43/1200.m3u8
熊熊乐园52,https://newcntv.qcloudcdn.com/asp/hls/1200/0303000a/3/default/23d304c091184090b3b6ceef8822a273/1200.m3u8
龍年频道,#genre#
香港32台,https://rthktv32-live.akamaized.net/hls/live/2036819/RTHKTV32/stream1/streamPlaylist.m3u8
香港33台,https://rthktv33-live.akamaized.net/hls/live/2101641/RTHKTV33/stream03/streamPlaylist.m3u8
香港34台,https://rthktv34-live.akamaized.net/hls/live/2101642/RTHKTV34/stream02/streamPlaylist.m3u8
香港34台,https://news.cgtn.com/resource/live/document/cgtn-doc.m3u8
耀才财经,https://v3.mediacast.hk/webcast/bshdlive-pc/chunklist_w99771165.m3u8
耀才财经,http://202.69.67.66:443/webcast/bshdlive-pc/playlist.m3u8
中国教育,http://183.250.157.35:8880/tsfile/live/1000_1.m3u8
4k??修复,http://liveshowbak2.kan0512.com/ksz-norecord/csztv4k_4k.m3u8
面包台,https://video.bread-tv.com:8091/hls-live24/online/index.m3u8
澳门莲花,http://anren.live/HK/BiIOU11uLA.m3u8
澳门莲花,http://anren.live/HK/BiIOU11uLA.m3u8
澳亚卫视,https://live.mastvnet.com/lsdream/lY44pmm/2000/live.m3u8
新加坡中文台,https://d2e1asnsl7br7b.cloudfront.net/7782e205e72f43aeb4a48ec97f66ebbe/index_4.m3u8?zshijd
新加坡国际,https://d2e1asnsl7br7b.cloudfront.net/7782e205e72f43aeb4a48ec97f66ebbe/index_4.m3u8
环球电视台,http://zb.xzxwhcb.com:9999/hls/world.m3u8
耀才财经,http://202.69.67.66:443/webcast/bshdlive-pc/playlist.m3u8
耀才财经,http://202.69.67.66:443/webcast/bshdlive-pc/playlist.m3u8?wowzasessionid=64000
耀才财经,https://v3.mediacast.hk/webcast/bshdlive-pc/playlist.m3u8
耀才财经,http://202.69.67.66:443/webcast/bshdlive-mobile/playlist.m3u8
番薯音乐,http://61.216.67.119:1935/TWHG/E1/chunklist_w705811302.m3u8
番薯音乐,http://61.216.67.119:1935/TWHG/E1/chunklist_w7058102.m3u8
大立电视,http://www.dalitv.com.tw:4568/live/dali/index.m3u8
人间卫视,http://61.216.67.119:1935/bltvhd/bltv1/chunklist_w1266569526.m3u8
美国中文电视,https://jpts.sinovision.net/livestream.m3u8
好消息综合台,https://dqhxk7sbp7xog.cloudfront.net/hls-live/goodtv/_definst_/liveevent/live-ch1-2.m3u8
时尚台FTV,http://80.94.54.42/fashiontv/stream/playlist.m3u8
中视新闻,https://raw.githubusercontent.com/ChiSheng9/iptv/master/TV09.m3u8
中视新闻,https://ytm2.yuanhsing.cf/twctvnews.m3u8
FOX新闻,https://fox-foxnewsnow-samsungus.amagi.tv/playlist720p.m3u8
镜新闻Mnews,https://ytm2.yuanhsing.cf/mnews.m3u8
镜新闻,https://raw.githubusercontent.com/ChiSheng9/iptv/master/TV70.m3u8
寰宇国际新闻,https://ytm2.yuanhsing.cf/GlobalNewsTV.m3u8
人间卫视,http://61.216.67.119:1935/bltvhd/bltv1/chunklist_w1266569526.m3u8
人间卫视,https://5ddce30eb4b55.streamlock.net/bltvhd/bltv1/chunklist_w511254805.m3u8
华视综艺,https://ytm2.yuanhsing.cf/TBSCTSSHOW.m3u8
华视戏剧,https://ytm2.yuanhsing.cf/ctsprog.m3u8
大立电视,http://www.dalitv.com.tw:4568/live/dali/index.m3u8
番薯台,http://61.216.67.119:1935/TWHG/E1/chunklist_w7058102.m3u8
八大电视,https://ytm2.yuanhsing.cf/GTVDRAMA.m3u8
大立电视,http://www.dalitv.com.tw:4568/live/dali/index.m3u8
番薯台,http://61.216.67.119:1935/TWHG/E1/chunklist_w7058102.m3u8
东森财经,https://ytm2.yuanhsing.cf/EBCFinancial.m3u8
寰宇国际新闻,https://ytm2.yuanhsing.cf/GlobalNewsTV.m3u8
人间卫视,http://61.216.67.119:1935/bltvhd/bltv1/chunklist_w1266569526.m3u8
人间卫视,https://5ddce30eb4b55.streamlock.net/bltvhd/bltv1/chunklist_w511254805.m3u8
华视综艺,https://ytm2.yuanhsing.cf/TBSCTSSHOW.m3u8
华视戏剧,https://ytm2.yuanhsing.cf/ctsprog.m3u8
番薯台,http://61.216.67.119:1935/TWHG/E1/chunklist_w7058102.m3u8
民视戏剧,https://ytm2.yuanhsing.cf/FTVDRAMA.m3u8

??国际频道,#genre#
环球电视,http://zb.xzxwhcb.com:9999/hls/world.m3u8
亚洲新闻,http://d2e1asnsl7br7b.cloudfront.net/7782e205e72f43aeb4a48ec97f66ebbe/index_4.m3u8
中國環球,http://live.cgtn.com/500/prog_index.m3u8
华文一台,http://vvlive.eztv.vip/huawen1/huawen1.m3u8?auth_key=1661769627-0-0-3a16475ac0fa2a152a25661e8634fe39
华文六台,http://vvlive.eztv.vip/huawen6/huawen6.m3u8?auth_key=1662611110-0-0-cf20c4fcf669736034b6ceac0d01d403
半岛新闻,http://live-hls-web-aja.getaj.net/AJA/02.m3u8
BRICS台,https://brics.bonus-tv.ru/cdn/brics/chinese/playlist.m3u8
俄罗斯频,https://rt-glb.rttv.com/dvr/rtnews/playlist_4500Kb.m3u8
乌克兰台,https://cdn.1tvcrimea.ru/1tvcrimea.m3u8
泰国ASTV,http://news1.live14.com/stream/news1_hi.m3u8
朝鲜新闻,http://119.77.96.184:1935/chn05/chn05/chunklist_w644291506.m3u8
韩国新闻,http://amdlive.ctnd.com.edgesuite.net:80/arirang_1ch/smil:arirang_1ch.smil/chunklist_b2256000_sleng.m3u8
俄罗斯台,http://brics.bonus-tv.ru/cdn/brics/chinese/tracks-v1a1/index.m3u8
日本华语,https://nhkwlive-ojp.akamaized.net/hls/live/2003459/nhkwlive-ojp-en/index_4M.m3u8
澳门莲花,http://107.151.203.111:2209/135/hk.php?id=amlh
环球频道,http://live.cgtn.com/500/prog_index.m3u8
ABC新闻,http://cms-wowza.lunabyte.io/wbrz-live-1/_definst_/smil:wbrz-live.smil/chunklist_b1300000.m3u8
红牛运动,http://rbmn-live.akamaized.net/hls/live/590964/BoRB-AT/master_928.m3u8
CNA频道,http://d2e1asnsl7br7b.cloudfront.net/7782e205e72f43aeb4a48ec97f66ebbe/index_5.m3u8
法国时尚,http://lb.streaming.sk/fashiontv/stream/chunklist.m3u8
欧洲体育,http://europa-crtvg.flumotion.com/playlist.m3u8
欧洲华01,http://vvlive.eztv.vip/huawen1/huawen1.m3u8?auth_key=1661769627-0-0-3a16475ac0fa2a152a25661e8634fe39 
欧洲华02,http://vvlive.eztv.vip/huawen2/huawen2.m3u8?auth_key=1661418936-0-0-bc9f000c6daa2def0b71d5389778b0d3
欧洲华06,http://vvlive.eztv.vip/huawen6/huawen6.m3u8?auth_key=1660814676-0-0-4d45d97f017e545dd368719f8dd48ffe 
动物频道,https://d18dyiwu97wm6q.cloudfront.net/playlist2160p.m3u8
地理野生,http://admdn2.cdn.mangomolo.com/nagtv/smil:nagtv.stream.smil/chunklist_b800000_t64NDgwcA==.m3u8
人间卫视,http://61.216.67.119:1935/bltvhd/bltv1/chunklist_w1266569526.m3u8
CGTN,https://news.cgtn.com/resource/live/english/cgtn-news.m3u8
CGTN记录,https://livedoc.cgtn.com/500d/prog_index.m3u8
CGTN俄语,https://liveru.cgtn.com/1000r/prog_index.m3u8
CGTN法语,https://livefr.cgtn.com/1000f/prog_index.m3u8
CGTN西语,https://livees.cgtn.com/1000e/prog_index.m3u8
CGTN阿语,https://livear.cgtn.com/1000a/prog_index.m3u8
NHKWORLD,https://nhkwlive-ojp.akamaized.net/hls/live/2003459/nhkwlive-ojp-en/index_4M.m3u8
亚洲新闻,https://d2e1asnsl7br7b.cloudfront.net/7782e205e72f43aeb4a48ec97f66ebbe/index.m3u8
半岛英语,https://live-hls-web-aje.getaj.net/AJE/01.m3u8
半岛阿语,https://live-hls-web-aja.getaj.net/AJA/02.m3u8
Thai PBS 3,https://thaipbs-live.cdn.byteark.com/live/playlist_1080p/index.m3u8
Love Nature 4K,https://d18dyiwu97wm6q.cloudfront.net/playlist2160p.m3u8
FASHIONTV,https://lb.streaming.sk/fashiontv/stream/chunklist_w1906011378.m3u8
FASHIONTV 4K,https://fash2043.cloudycdn.services/slive/ftv_ftv_4k_hevc_73d_42080_default_466_hls.smil/playlist.m3u8
金砖电视,https://brics.bonus-tv.ru/cdn/brics/chinese/tracks-v1a1/index.m3u8
亚洲新闻720P,https://d2e1asnsl7br7b.cloudfront.net/7782e205e72f43aeb4a48ec97f66ebbe/index_4.m3u8
亚洲新闻1080P,https://d2e1asnsl7br7b.cloudfront.net/7782e205e72f43aeb4a48ec97f66ebbe/index_5.m3u8
韩·BBS佛教,http://bbstv.clouducs.com:1935/bbstv-live/livestream/chunklist_w1403706733.m3u8
韩·SBS,http://1.245.74.5:1935/live/tv/.m3u8
韩·阿里郎Korea,http://amdlive.ctnd.com.edgesuite.net/arirang_1ch/smil:arirang_1ch.smil/playlist.m3u8
韩·JobPlusTV,http://live.worktv.or.kr:1935/live/wowtvlive1.sdp/playlist.m3u8
韩·GS My Shop,https://gstv-myshop.gsshop.com/myshop_hd/myshop_hd.stream/playlist.m3u8
韩·KoreaTV,https://hlive.ktv.go.kr/live/klive_h.stream/playlist.m3u8
韩·TBS,https://cdntv.tbs.seoul.kr/tbs/_definst_/tbs_tv_web_720.smil/playlist.m3u8
韩·KBS World,https://kbsworld-ott.akamaized.net/hls/live/2002341/kbsworld/01.m3u8
韩·EBS1,https://ebsonairios.ebs.co.kr/groundwavefamilypc/familypc1m/playlist.m3u8
韩·EBS2,https://ebsonairios.ebs.co.kr/ebs2familypc/familypc1m/playlist.m3u8
韩·EBSe,https://ebsonairios.ebs.co.kr/plus3familypc/familypc1m/playlist.m3u8
韩·NBS,https://media.joycorp.co.kr:4443/live/live_720p/playlist.m3u8
俄·IGITV,https://hls-igi.cdnvideo.ru/igi/igi_hq/playlist.m3u8
俄·RBC,http://92.50.128.180/utv/1358/index.m3u8
美·NASA 1,https://ntv1.akamaized.net/hls/live/2014075/NASA-NTV1-HLS/master_2000.m3u8
美·NASA 2,https://ntv2.akamaized.net/hls/live/2013923/NASA-NTV2-HLS/master_2000.m3u8
美·红牛运动,https://rbmn-live.akamaized.net/hls/live/590964/BoRB-AT/master_1660.m3u8
乌·M2音乐,https://live.m2.tv/hls3/stream.m3u8
西·加利西亚欧洲体育电视台,https://europa-crtvg.flumotion.com/playlist.m3u8
希·FoxTV,http://live.streams.ovh:1935/foxtv/foxtv/playlist.m3u8
越·HBTV,http://hoabinhtvlive.746b3ddb.cdnviet.com/hoabinhtv/playlist.m3u8
越·ANTV,http://antvlive.ab5c6921.cdnviet.com/antv/chunklist.m3u8
番薯,http://61.216.67.119:1935/TWHG/E1/chunklist_w705811302.m3u8
ABC新闻,http://cms-wowza.lunabyte.io/wbrz-live-1/_definst_/smil:wbrz-live.smil/chunklist_b1300000.m3u8
NewsmaxTV,https://nmxlive.akamaized.net/hls/live/529965/Live_1/index.m3u8
PBS America,https://pbs-samsunguk.amagi.tv/playlist.m3u8
moviesphere,https://moviesphere-samsung-samsungus.amagi.tv/playlist.m3u8
EdgeSport,https://edgesport-samsunguk.amagi.tv/playlist.m3u8
CanadaOne,http://cdn8.live247stream.com/canadaone/tv/playlist.m3u8
CA,https://rcavlive.akamaized.net/hls/live/704025/xcanrdi/master.m3u8
InsightTV,https://insighttv-samsung-canada.amagi.tv/playlist.m3u8
Astrakhan24,https://streaming.astrakhan.ru/astrakhan24/index.m3u8
Самара,http://live.guberniatv.cdnvideo.ru/guberniatv/guberniatv.sdp/playlist.m3u8
日本QVC,https://cdn-live1.qvc.jp/iPhone/800/800.m3u8
日本Shop Channel,https://stream3.shopch.jp/HLS/master.m3u8
长城精品,http://38.64.72.148:80/hls/modn/list/4008/chunklist1.m3u8
香港佛陀,https://js1.amtb.cn/liveedge/_definst_/livetv/playlist.m3u8
VB,https://live.tv2bornholm.dk/stream/live/chunklist.m3u8
环球电视台,http://zb.xzxwhcb.com:9999/hls/world.m3u8

??新闻专区,#genre#
新闻综合,http://112.132.181.221:9988/hls/51/index.m3u8
南京新闻,http://live.nbs.cn/channels/njtv/xwzh/nbs06.m3u8
四川新闻,http://183.223.157.33:85/tsfile/live/1003_1.m3u8?key=txiptv

??山东频道,#genre#
山东齐鲁,http://221.2.146.228:8888/newlive/live/hls/49/live.m3u8
山东文旅,http://221.2.146.228:8888/newlive/live/hls/50/live.m3u8
山东生活,http://221.2.146.228:8888/newlive/live/hls/51/live.m3u8
山东综艺,http://221.2.146.228:8888/newlive/live/hls/52/live.m3u8
山东体育,http://221.2.146.228:8888/newlive/live/hls/53/live.m3u8
山东新闻,http://221.2.146.228:8888/newlive/live/hls/54/live.m3u8
烟台经济科技,http://live.yantaitv.cn/live/27f84144e95a4652ae9e5c211b2a6b55/405f3e33ba384aa0a16014d0becd1261-1.m3u8
烟台新闻综合,http://live.yantaitv.cn/live/3e81a8879da44c5dadf3bd9c10468e1c/9b776d420ee4438199b7657c8eb88f07-1.m3u8
烟台影视频道,http://live.yantaitv.cn/live/e9f1d9045d474c31884d13fa4ffbbd16/a4a9b3704d854756907845107cc56129-1.m3u8
青州综合,http://sdqz.chinashadt.com:2036/live/stream:1.stream/playlist.m3u8
青州文化旅游,http://sdqz.chinashadt.com:2036/live/stream:3.stream/playlist.m3u8
临沂新闻综合,https://m3u8-channel.lytv.tv/nmip-media/channellive/channel111841/playlist.m3u8
临沂公共,https://m3u8-channel.lytv.tv/nmip-media/channellive/channel113571/playlist.m3u8
临沂农科频道,https://m3u8-channel.lytv.tv/nmip-media/channellive/channel115062/playlist.m3u8

山东齐鲁,http://livealone.iqilu.com/iqilu/qlpdhjOF03kn.m3u8
山东综艺,http://221.214.140.137:9901/tsfile/live/1002_1.m3u8
山东体育,http://120.224.23.34:9901/tsfile/live/1003_1.m3u8?key=txiptv&playlive=1&authid=0

山东体育,http://fangke.blueswords.com:9901/tsfile/live/0111_1.m3u8

??吉林频道,#genre#
新闻综合,http://living.muzhifm.com/jilinshi/jl_v_zonghe.m3u8?auth_key=1810543316-0-0-6c00b6138e27b96b115a78fe9168ab40
YATV-公共,http://live.cloud.yanews.cn/video/s10001-YATV-2/index.m3u8?zjild
YBTV-2,http://live.ybtvyun.com/video/s10006-04819ee234a7/index.m3u8?zjild
延边朝鲜语综合,http://live.ybtvyun.com/video/s10016-19a16c47eb99/index.m3u8?zjild
九台综合,http://stream10.jlntv.cn/jiutaitv/sd/live.m3u8?zjild
双阳综合,http://stream11.jlntv.cn/shuangyang/sd/live.m3u8?zjild
珲春新闻综合,http://stream8.jlntv.cn/hctv/sd/live.m3u8?zjild
德惠综合,http://stream11.jlntv.cn/dehuitv/sd/live.m3u8?zjild
靖宇综合,http://stream8.jlntv.cn/jytv/sd/live.m3u8?zjild
龙井综合,http://stream8.jlntv.cn/ljtv/sd/live.m3u8?zjild
舒兰新闻综合,http://stream8.jlntv.cn/shulan/sd/live.m3u8?zjild
桦甸综合,http://stream10.jlntv.cn/huadian/sd/live.m3u8?zjild
东丰综合,http://stream5.jlntv.cn/df/sd/live.m3u8?zjild
双辽综合,http://stream5.jlntv.cn/sl/sd/live.m3u8?zjild
柳河综合,http://stream5.jlntv.cn/lh/sd/live.m3u8?zjild
辉南新闻综合,http://stream5.jlntv.cn/hn/sd/live.m3u8?zjild
汪清综合,http://stream5.jlntv.cn/wq/sd/live.m3u8?zjild
通化县综合,http://stream5.jlntv.cn/thx/sd/live.m3u8?zjild
磐石综合,http://stream5.jlntv.cn/ps/sd/live.m3u8?zjild
龙井综合,http://stream8.jlntv.cn/ljtv/sd/live.m3u8

??港湾频道,#genre#
T翡翠台,http://r.jdshipin.com/qClQf
环球电视台,http://zb.xzxwhcb.com:9999/hls/world.m3u8
凤凰中文,http://php.17186.eu.org/phtv/fhzw.m3u8
凤凰中文,http://r.jdshipin.com/cCCzW
香港卫视,http://zhibo.hkstv.tv/livestream/mutfysrq/playlist.m3u8
Sbt,http://208.115.225.174:14170
中国环球电视,http://live.cgtn.com/500/prog_index.m3u8
香港電台(RTHK 34),https://news.cgtn.com/resource/live/document/cgtn-doc.m3u8
香港電台(RTHK 34),https://livedoc.cgtn.com/1000d/prog_index.m3u8
耀才財經台,https://v3.mediacast.hk/webcast/bshdlive-pc/playlist.m3u8
香港衛視[geo-blocked],https://epg.pw/stream/99980f8e82d6d4111c77f2fe961013e7d1ee153a55c7a9be69cfa17143933fd1.m3u8
hks,https://epg.pw/stream/0eab6241cf13ac3d52485869be7750cdf3d4366792dd4ac805449d6c39a4990a.m3u8
海峡两岸,http://hls.cntv.myhwcdn.cn/asp/hls/1200/0303000a/3/default/93dafada4e35457788319f02f5063529/1200.m3u8
香港佛陀,https://js1.amtb.cn/liveedge/_definst_/livetv/playlist.m3u8
耀才財經,http://202.69.67.66:443/webcast/bshdlive-mobile/playlist.m3u8
亚洲新闻,http://d2e1asnsl7br7b.cloudfront.net/7782e205e72f43aeb4a48ec97f66ebbe/index_4.m3u8
香港麵包台,https://video.bread-tv.com:8091/hls-live24/online/index.m3u8

凤凰卫视中文台,http://221.7.175.154:8445/tsfile/live/1020_1.m3u8
NHK BS,http://cdns.jp-primehome.com:8000/zhongying/live/playlist.m3u8?cid=bs11&isp=10&bind=0&uin=159413&playseek=0
NHK BSP 4K,http://cdns.jp-primehome.com:8000/zhongying/live/playlist.m3u8?cid=bs01&isp=10&bind=0&uin=159413&playseek=0
BS NTV,http://cdns.jp-primehome.com:8000/zhongying/live/playlist.m3u8?cid=bs02&isp=10&bind=0&uin=159413&playseek=0
BS Asahi,http://cdns.jp-primehome.com:8000/zhongying/live/playlist.m3u8?cid=bs03&isp=10&bind=0&uin=159413&playseek=0
BS TBS,http://cdns.jp-primehome.com:8000/zhongying/live/playlist.m3u8?cid=bs04&isp=10&bind=0&uin=159413&playseek=0
BS TV Tokyo,http://cdns.jp-primehome.com:8000/zhongying/live/playlist.m3u8?cid=bs05&isp=10&bind=0&uin=159413&playseek=0
BS Fuji HD,http://cdns.jp-primehome.com:8000/zhongying/live/playlist.m3u8?cid=bs06&isp=10&bind=0&uin=159413&playseek=0
WOWOW Prime,http://cdns.jp-primehome.com:8000/zhongying/live/playlist.m3u8?cid=bs12&isp=10&bind=0&uin=159413&playseek=0
WOWOW Live,http://cdns.jp-primehome.com:8000/zhongying/live/playlist.m3u8?cid=bs20&isp=10&bind=0&uin=159413&playseek=0
WOWOW Cinema,http://cdns.jp-primehome.com:8000/zhongying/live/playlist.m3u8?cid=bs07&isp=10&bind=0&uin=159413&playseek=0
Channel 1, http://cdns.jp-primehome.com:8000/zhongying/live/playlist.m3u8?cid=bs08&isp=10&bind=0&uin=159413&playseek=0
Star Channel 2,http://cdns.jp-primehome.com:8000/zhongying/live/playlist.m3u8?cid=bs27&isp=10&bind=0&uin=159413&playseek=0
Channel 3,http://cdns.jp-primehome.com:8000/zhongying/live/playlist.m3u8?cid=bs28&isp=10&bind=0&uin=159413&playseek=0
BS Animax, http://cdns.jp-primehome.com:8000/zhongying/live/playlist.m3u8?cid=bs15&isp=10&bind=0&uin=159413&playseek=0
SPORTS 1,http://cdns.jp-primehome.com:8000/zhongying/live/playlist.m3u8?cid=bs18&isp=10&bind=0&uin=159413&playseek=0
SPORTS 2,http://cdns.jp-primehome.com:8000/zhongying/live/playlist.m3u8?cid=bs19&isp=10&bind=0&uin=159413&playseek=0
SPORTS 3,http://cdns.jp-primehome.com:8000/zhongying/live/playlist.m3u8?cid=bs21&isp=10&bind=0&uin=159413&playseek=0
SPORTS 4,http://cdns.jp-primehome.com:8000/zhongying/live/playlist.m3u8?cid=bs22&isp=10&bind=0&uin=159413&playseek=0
Movie Channel,http://cdns.jp-primehome.com:8000/zhongying/live/playlist.m3u8?cid=bs23&isp=10&bind=0&uin=159413&playseek=0

??影视频道,#genre#
山西影视,http://liveflash.sxrtv.com/live/sxfilm.m3u8?sub_m3u8=true&edge_slice=true
安徽影视,http://snapshot-live-ht.ahtv.cn/atvrtmp/143_q_live161829369249612.m3u8
浙江影视,http://ali-m-l.cztv.com/channels/lantian/channel005/1080p.m3u8
吉林影视,http://hls1.avap.jilintv.cn/zqvk7vpj/channel/906341e6f19b4c4bacdc89941eb85d12/1.m3u8
河北影视,http://121.19.134.29:808/hls/19/index.m3u8
绍兴影视,http://live.shaoxing.com.cn/video/s10001-sxtv3/index.m3u8
滨海影视,http://traffic.jbh.tjbh.com/live/bhtv3/playlist.m3u8
烟台影视,http://live.yantaitv.cn/live/e9f1d9045d474c31884d13fa4ffbbd16/a4a9b3704d854756907845107cc56129.m3u8
新泰影视,http://111.17.214.4:1935/live/xtys/playlist.m3u8
新昌休闲影视,http://l.cztvcloud.com/channels/lantian/SXxinchang2/720p.m3u8
石河子影视文体,http://124.88.144.73:1935/live/jjsh/HasBahCa.m3u8
南京影视,http://live.nbs.cn/channels/njtv/xxpd/m3u8:500k/live.m3u8
隆化影视,http://hblh.chinashadt.com:2036/live/stream:lh2.stream/playlist.m3u8
平泉影视,https://jwliveqxzb.hebyun.com.cn/pqys/pqys.m3u8
苏州4K,http://liveshowbak2.kan0512.com/ksz-norecord/csztv4k_4k.m3u8?blog.ntnas.top
新泰影视频道,http://live.xtgdw.cn:1935/live/xtys/playlist.m3u8
太原影视,http://live.cooltv.top/tv/tide.php?id=tyys
万州影视,http://123.146.162.24:8017/d4ceB1a/1000/live.m3u8

安徽影视,http://112.30.194.221:20080/live/d18ff95cb1fb4bbcb56215e189fc12be/hls.m3u8

安徽影视,http://mmitv.top/test/ahtv.php?id=13

??新闻频道,#genre#
上虞新闻,http://l.cztvcloud.com/channels/lantian/SXshangyu1/720p.m3u8
新昌新闻,http://l.cztvcloud.com/channels/lantian/SXxinchang1/720p.m3u8
萧山新闻,http://l.cztvcloud.com/channels/lantian/SXxiaoshan1/720p.m3u8
余姚新闻,http://l.cztvcloud.com/channels/lantian/SXyuyao1/720p.m3u8
CGTB NEWS,http://live.cgtn.com/1000/prog_index.m3u8
北京新闻,https://live.funhillrm.com/5/sd/live.m3u8
苏州新闻,http://tylive.kan0512.com/norecord/norecord_csztv1.m3u8
漳州新闻,http://31182.hlsplay.aodianyun.com/lms_31182/tv_channel_175.m3u8
端江新闻,http://58.222.151.43:1935/live/xwzhpc/playlist.m3u8
武进新闻,http://live.wjyanghu.com/live/CH1.m3u8
江津新闻,http://222.179.155.21:1935/ch1.m3u8
端江新闻,http://visit.jjbctv.com:1935/live/xwzhmb/playlist.m3u8

??春晚—發,#genre#
春晚1984,http://txmov2.a.kwimgs.com/upic/2022/01/31/15/BMjAyMjAxMzExNTU5NTRfNDAzMDAxOTlfNjYyNzMyMzg3MTRfMF8z_b_B192356dadbc90d207ba16964d4c2914c.mp4
春晚1985,http://txmov2.a.kwimgs.com/upic/2022/01/31/16/BMjAyMjAxMzExNjAwMDFfNDAzMDAxOTlfNjYyNzMyNTAwMzJfMF8z_b_Be73c5abcbc0eeb2ec9fce6842e1362a4.mp4
春晚1986,https://txmov2.a.kwimgs.com/bs3/video-hls/5231493982164619599_hlshd15.m3u8
春晚1987,https://txmov2.a.kwimgs.com/bs3/video-hls/5195746663405928031_hlsb.m3u8
春晚1988,https://txmov2.a.kwimgs.com/bs3/video-hls/5216575810935394655_hlsb.m3u8
春晚1989,http://txmov2.a.kwimgs.com/upic/2022/01/31/16/BMjAyMjAxMzExNjAwMTVfNDAzMDAxOTlfNjYyNzMyNzQ2OTlfMF8z_b_Be477b27b9ce655d2372df56a5a3d96ef.mp4
春晚1991,https://txmov2.a.kwimgs.com/bs3/video-hls/5210664837540712798_hlshd15.m3u8
春晚1992,https://txmov2.a.kwimgs.com/bs3/video-hls/5256826755663896297_hlshd15.m3u8
春晚1993,https://txmov2.a.kwimgs.com/bs3/video-hls/5217420261875933947_hlshd15.m3u8
春晚1994,https://txmov2.a.kwimgs.com/bs3/video-hls/5197154061406974711_hlshd15.m3u8
春晚1995,https://txmov2.a.kwimgs.com/bs3/video-hls/5255137907893179578_hlshd15.m3u8
春晚1997,https://txmov2.a.kwimgs.com/bs3/video-hls/5230649583590411879_hlshd15.m3u8
春晚1998,https://txmov2.a.kwimgs.com/bs3/video-hls/5225864507896315430_hlshd15.m3u8
春晚1999,https://txmov2.a.kwimgs.com/bs3/video-hls/5258234133675308186_hlshd15.m3u8
春晚2000,https://txmov2.a.kwimgs.com/bs3/video-hls/5216294359327079321_hlshd15.m3u8
春晚2001,https://txmov2.a.kwimgs.com/bs3/video-hls/5228960735897942616_hlshd15.m3u8
春晚2002,https://txmov2.a.kwimgs.com/bs3/video-hls/5255700858599864364_hlshd15.m3u8
春晚2004,https://txmov2.a.kwimgs.com/bs3/video-hls/5223894184413450769_hlshd15.m3u8
春晚2005,https://txmov2.a.kwimgs.com/bs3/video-hls/5254012008863954469_hlshd15.m3u8
春晚2006,https://txmov2.a.kwimgs.com/bs3/video-hls/5194339310474320155_hlshd15.m3u8
春晚2007,https://txmov2.a.kwimgs.com/bs3/video-hls/5219953534755647343_hlshd15.m3u8
春晚2008,https://txmov2.a.kwimgs.com/bs3/video-hls/5194902262344826321_hlshd15.m3u8
春晚2009,https://txmov2.a.kwimgs.com/bs3/video-hls/5210946337266019890_hlshd15.m3u8
春晚2014,https://txmov2.a.kwimgs.com/bs3/video-hls/5245286283437869627_hlshd15.m3u8
春晚2019,https://txmov2.a.kwimgs.com/bs3/video-hls/5222205336887088723_hlshd15.m3u8
春晚2020,https://txmov2.a.kwimgs.com/bs3/video-hls/5248101009010430183_hlshd15.m3u8
春晚2021,http://txmov2.a.kwimgs.com/upic/2022/01/30/17/BMjAyMjAxMzAxNzE4NTJfNDAzMDAxOTlfNjYxNzUzOTg3NjlfMF8z_b_Be41d9503181d7b0608a839ed401e02c2.mp4
春晚2022,http://txmov2.a.kwimgs.com/upic/2022/02/01/11/BMjAyMjAyMDExMTEwMjNfNDAzMDAxOTlfNjYzNzA4MTk4NzNfMF8z_b_B898cc7ddd0025bf54ddb18ec1f723c84.mp4
春晚2023,https://txmov2.a.kwimgs.com/bs3/video-hls/5251197255879398624_hlshd15.m3u8

??HBO｜庭,#genre#
HBO,http://208.115.225.174:14165
HBO 2,http://208.115.225.174:14140
HBO Mundi,http://208.115.225.174:14148
HBO signature,http://208.115.225.174:14160
WB TV,http://208.115.225.174:14132

??电影直播,#genre#
神乐影院-1台,https://tc-tc2-interact.douyucdn2.cn/dyliveflv1/85894rmovieChow_900p.m3u8
神乐影院-2台,https://tc-tc2-interact.douyucdn2.cn/dyliveflv1a/122402rK7MO9bXSq_900.m3u8

??体育频道,#genre#
纬来篮球,https://cloud.yumixiu768.com/tmp/123.m3u8
纬来篮球,http://hls.szsummer.cn/live/446035/playlist.m3u8?k=32f9ec7c13e4b390289143a8e1b2a898&t=1840341130
国外赛事1,https://glxlmn026c.singularcdn.net.br/playout_01/playlist-720p.m3u8
国外赛事2,https://glxlmn026c.singularcdn.net.br/playout_02/playlist-720p.m3u8
国外赛事3,https://glxlmn026c.singularcdn.net.br/playout_03/playlist-720p.m3u8
国外赛事4,https://glxlmn026c.singularcdn.net.br/playout_04/playlist-720p.m3u8
国外赛事5,https://glxlmn026c.singularcdn.net.br/playout_05/playlist-720p.m3u8
国外体育6,http://dmitwlvvll.cdn.mangomolo.com/dubaisportshd/smil:dubaisportshd.smil/chunklist_b1600000.m3u8
武林频道,http://121.19.134.29:808/hls/71/index.m3u8
安徽体育,http://112.30.194.221:20080/live/c41f112b83f644ddb082669501c8ecd3/hls.m3u8
先锋乒羽,http://182.32.204.113:9901/tsfile/live/1006_1.m3u8?by=angtv
风云足球,http://121.19.134.29:808/hls/80/index.m3u8
高尔夫台,http://121.19.134.29:808/hls/84/index.m3u8

??教育频道,#genre#
广东文化频道,https://glive.grtn.cn/live/wenhua_test0203.m3u8?auth_key=1617289309-0-0-7b2730980c8860963374597c20ad3935

??广东频道,#genre#
河源综合,http://tmpstream.hyrtv.cn/xwzh/sd/live.m3u8
河源公共,http://tmpstream.hyrtv.cn/hygg/sd/live.m3u8
阳江综合,https://live.yjtvw.com:8081/live/smil:yjtv1.smil/chunklist_b3628000.m3u8
阳江公共,https://live.yjtvw.com:8081/live/smil:yjtv2.smil/chunklist_b1152000.m3u8
广东文化,https://glive.grtn.cn/live/wenhua_test0203.m3u8
阳江1,https://live.yjtvw.com:8081/live/smil:yjtv1.smil/playlist.m3u8
河源综合,https://tmpstream.hyrtv.cn/xwzh/sd/live.m3u8?_upt=f767206b1671099007
阳江综合,https://live.yjtvw.com:8081/live/smil:yjtv1.smil/chunklist_b1152000.m3u8
阳江公共,https://live.yjtvw.com:8081/live/smil:yjtv2.smil/chunklist_w551261166_b928000.m3u8

??河北频道,#genre#

河北 石家庄新闻,http://pluslive1.sjzntv.cn/xmzh/HD/live.m3u8
河北 石家庄娱乐,http://pluslive1.sjzntv.cn/yule/HD2/live.m3u8
河北 石家庄都市,http://pluslive1.sjzntv.cn/dushi/HD4/live.m3u8
河北 石家庄生活,http://pluslive1.sjzntv.cn/shenghuo/HD3/live.m3u8
河北 鹿泉综合,https://jwliveqxzb.hebyun.com.cn/luquanyi/luquanyi.m3u8
河北 鹿泉二套,https://jwliveqxzb.hebyun.com.cn/luquaner/luquaner.m3u8
河北 邯郸新闻综合,http://live.hd.hdbs.cn/video/s10001-2021hdxwzh/index.m3u8
河北 邯郸科技教育,http://live.hd.hdbs.cn/video/s10001-2021hdkjjy/index.m3u8
河北 邯郸公共,http://live.hd.hdbs.cn/video/s10001-2021hdgg/index.m3u8
河北 涉县新闻综合,https://jwcdnqx.hebyun.com.cn/live/SXTV1/1500k/tzwj_video.m3u8
河北 保定定州国学影视,https://jwliveqxzb.hebyun.com.cn/yspd/yspd.m3u8
河北 赞皇电视台,http://p2bj.vzan.com/slowlive/435455898015647946/live.m3u8
河北 书画频道,http://211.103.180.178:8234/live_hls/hdmi.m3u8
河北 点撑财经,https://wsvideo.aniu.tv/live/aniu/playlist.m3u8

??陕西频道,#genre#

陕西新闻资讯,http://39.134.24.165/dbiptv.sn.chinamobile.com/PLTV/88888888/224/3221226357/1.m3u8
陕西公共,http://39.134.24.165/dbiptv.sn.chinamobile.com/PLTV/88888888/224/3221226361/1.m3u8
陕西影视,http://39.134.24.165/dbiptv.sn.chinamobile.com/PLTV/88888888/224/3221226360/1.m3u8
陕西体育休闲,http://39.134.24.165/dbiptv.sn.chinamobile.com/PLTV/88888888/224/3221226363/1.m3u8
陕西汉中略阳,http://39.134.24.165/dbiptv.sn.chinamobile.com/PLTV/88888888/224/3221226322/1.m3u8
陕西咸阳,http://39.134.24.165/dbiptv.sn.chinamobile.com/PLTV/88888888/224/3221226372/1.m3u8
陕西铜川,http://39.134.24.165/dbiptv.sn.chinamobile.com/PLTV/88888888/224/3221226379/1.m3u8
陕西汉中城固,http://39.134.24.165/dbiptv.sn.chinamobile.com/PLTV/88888888/224/3221226920/1.m3u8

  青海频道,#genre#
青海 经济生活,http://stream.qhbtv.com/qhsh/playlist.m3u8
青海 都市频道,http://stream.qhbtv.com/qhds/playlist.m3u8
青海 西宁生活,https://liveout.xntv.tv/a65jur/90p2i1.m3u8
青海 西宁综合,https://liveout.xntv.tv/a65jur/96iln2.m3u8
青海 贵南电视,http://livecdn.dmqhyadmin.com/hls/xjguinan.m3u8
青海 化隆电视,http://livecdn.dmqhyadmin.com/hls/xjhualong.m3u8
青海 民和电视,http://livecdn.dmqhyadmin.com/hls/xjminhe.m3u8
青海 门源电视,http://livecdn.dmqhyadmin.com/hls/xjmenyuan.m3u8
青海 湟中电视,http://livecdn.dmqhyadmin.com/hls/xjhuangzhong.m3u8
青海 囊谦综合,http://pili-live-hls-qhnqapp2020.sobeylive.com/qhnqapp2020/qhnqtv01.m3u8

??山 西频道,#genre#
山西 晋中公共频道,http://jzlive.jztvnews.com:90/live/jzgg.m3u8
山西 晋中新闻频道,http://jzlive.jztvnews.com:90/live/jzzh.m3u8
山西 运城公共频道,http://live.0359tv.com/lsdream/t667aTY/1000/live.m3u8
山西 运城科技教育,http://live.0359tv.com/lsdream/p5eq48m/1000/live.m3u8
山西 高平综合,http://live.gprmt.cn/gpnews/hd/live.m3u8
山西 吉县新闻综合,http://jxlive.jxrmtzx.com:8091/live/xwzh.m3u8
山西 灵石新闻综合,https://live-stream.lsxrmtzx.com/live/video.m3u8
山西 潞城新闻综合,http://59.48.42.6:62204/lucheng.m3u8
山西 长子综合频道,http://zzlive.zzc-media.com:8092/live/xwzh.m3u8
山西 运城新闻综合,http://live.0359tv.com/lsdream/ss4Lj11/1000/live.m3u8

  安徽频道,#genre#
宿州科教,http://live.ahsz.tv/video/s10001-kxjy/index.m3u8
宿州新闻,http://live.ahsz.tv/video/s10001-szzh/index.m3u8
宿州公共,http://live.ahsz.tv/video/s10001-ggpd/index.m3u8
灵璧综合,http://live.cms.anhuinews.com/video/s10003-lbtv/index.m3u8?zanhd
霍山综合,http://ahhsdb.chinashadt.com:1936/live/stream:ahws.stream/playlist.m3u8?zanhd
安徽导视,https://livehls1.appcoo.com/liveshopping/949E0A98C9D0C311/6D925141BC1F8C28/index.m3u8
农业科教,http://snapshot-live-ht.ahtv.cn/atvrtmp/143_q_live161829358013848.m3u8
经济生活,http://snapshot-live-ht.ahtv.cn/atvrtmp/143_q_live161829325295495.m3u8
综艺体育,http://snapshot-live-ht.ahtv.cn/atvrtmp/143_q_live161829415240627.m3u8
经济生活,http://112.30.194.221:20080/live/eac499adad7b49ff9cfa79ba84693959/hls.m3u8
BRICS台,https://brics.bonus-tv.ru/cdn/brics/chinese/playlist.m3u8
金砖英文,http://brics.bonus-tv.ru/cdn/brics/english/tracks-v1a1/index.m3u8
法国时尚,http://lb.streaming.sk/fashiontv/stream/chunklist.m3u8
半岛新闻,http://live-hls-web-aja.getaj.net/AJA/02.m3u8
泰国ASTV,http://news1.live14.com/stream/news1_hi.m3u8
朝鲜新闻,http://119.77.96.184:1935/chn05/chn05/chunklist_w644291506.m3u8
韩国新闻,http://amdlive.ctnd.com.edgesuite.net:80/arirang_1ch/smil:arirang_1ch.smil/chunklist_b2256000_sleng.m3u8
俄罗斯台,http://brics.bonus-tv.ru/cdn/brics/chinese/tracks-v1a1/index.m3u8
日本华语,https://nhkwlive-ojp.akamaized.net/hls/live/2003459/nhkwlive-ojp-en/index_4M.m3u8
日本新闻,https://n24-cdn-live.ntv.co.jp/ch01/index.m3u8
红牛运动,http://rbmn-live.akamaized.net/hls/live/590964/BoRB-AT/master_928.m3u8
CNA频道,http://d2e1asnsl7br7b.cloudfront.net/7782e205e72f43aeb4a48ec97f66ebbe/index_5.m3u8
欧洲体育,http://europa-crtvg.flumotion.com/playlist.m3u8
动物频道,https://d18dyiwu97wm6q.cloudfront.net/playlist2160p.m3u8
乌克兰台,https://cdn.1tvcrimea.ru/1tvcrimea.m3u8
俄罗斯频,https://rt-glb.rttv.com/dvr/rtnews/playlist_4500Kb.m3u8

半岛新闻,http://live-hls-web-aje.getaj.net/AJE/01.m3u8
日本新闻,https://n24-cdn-live.ntv.co.jp:443/ch01/high.m3u8

  韩国频道,#genre#
韩国|HotPlusTV,http://live.worktv.or.kr:1935/live/wowtvlive1.sdp/playlist.m3u8
韩国|KCTV,http://119.77.96.184:1935/chn05/chn05/chunklist_w1306745753.m3u8
韩国|EBS,http://ebsonairios.ebs.co.kr/groundwavetablet500k/tablet500k/playlist.m3u8
韩国|EBS1,http://ebsonairios.ebs.co.kr/ebs2familypc/familypc1m/playlist.m3u8
韩国|EBSi,http://ebsonairios.ebs.co.kr/plus1tablet500k/tablet500k/plus1tablet500k.index.m3u8
韩国|EBS+2,http://ebsonairios.ebs.co.kr/plus2tablet500k/tablet500k/plus2tablet500k.index.m3u8
韩国|EBSe,http://ebsonairios.ebs.co.kr/plus3familypc/familypc1m/playlist.m3u8
韩国|EBS少儿,http://ebsonairios.ebs.co.kr/ebsutablet500k/_definst_/tablet500k/chunklist_w1965791004.m3u8
韩国|BBS广播,http://bbstv.clouducs.com:1935/bbstv-live/livestream/chunklist_w1403706733.m3u8
韩国|EBS_E频道,http://ebsonairios.ebs.co.kr/plus3tablet500k/tablet500k/plus3tablet500k.index.m3u8
韩国|EBS加一频道,http://ebsonairios.ebs.co.kr/plus1tablet500k/tablet500k/playlist.m3u8
韩国|EBS加二频道,http://ebsonairios.ebs.co.kr/plus2tablet500k/tablet500k/plus2tablet500k.index.m3u8
韩国|EBS第一频道,http://ebsonairios.ebs.co.kr/groundwavetablet500k/tablet500k/groundwavetablet500k.m3u8
韩国|EBS第二频道,http://ebsonairios.ebs.co.kr/ebs2tablet500k/tablet500k/ebs2tablet500k.index.m3u8
韩国|大田MBC,https://ns1.tjmbc.co.kr/live/myStream.sdp/playlist.m3u8
韩国|丽水MBC,https://5c3639aa99149.streamlock.net/live_TV/tv/playlist.m3u8
韩国|庆南昌原本部MBC,https://624a79c87201d.streamlock.net/MBCTV/TV1.stream/playlist.m3u8
韩国|木浦MBC,http://vod.mpmbc.co.kr:1935/live/encoder-tv/playlist.m3u8
韩国|济州MBC,https://wowza.jejumbc.com/live/tv_jejumbc/playlist.m3u8
韩国|江原岭东MBC,http://123.254.72.24:1935/tvlive/livestream2/playlist.m3u8
韩国IMBC综合频道,http://vod.mpmbc.co.kr:1935/live/encoder-tv/playlist.m3u8
韩国|国防电视,http://mediaworks.dema.mil.kr:1935/live_edge/cudo.sdp/playlist.m3u8
韩国|新闻,http://moneytoday1.ktcdn.co.kr:1935/mtnlive/720/playlist.m3u8
韩国|职业广播,http://live.worktv.or.kr:1935/live/wowtvlive1.sdp/playlist.m3u8
韩国|EBS,http://ebsonairios.ebs.co.kr/groundwavefamilypc/familypc1m/playlist.m3u8

??日本频道,#genre#
国外|日本购物1,http://stream1.shopch.jp/HLS/out1/prog_index.m3u8
日本|QVC,http://cdn-live1.qvc.jp/iPhone/800/800.m3u8
日本|花花公子蒙古http://spacetv.in/stream/WUQP6BVK17/56.m3u8
日本|全天新闻,https://n24-cdn-live.ntv.co.jp/ch01/index.m3u8

??未知分类,#genre#
CETV3,http://39.134.24.165/dbiptv.sn.chinamobile.com/PLTV/88888888/224/3221226226/1.m3u8
金鹰卡通,http://39.134.24.165/dbiptv.sn.chinamobile.com/PLTV/88888888/224/3221225744/1.m3u8
丝路频道,http://39.134.24.165/dbiptv.sn.chinamobile.com/PLTV/88888888/224/3221226370/1.m3u8
京视剧场,http://39.134.24.165/dbiptv.sn.chinamobile.com/PLTV/88888888/224/3221226243/1.m3u8
综合频道,http://39.134.24.165/dbiptv.sn.chinamobile.com/PLTV/88888888/224/3221226331/1.m3u8
美丽中国说,http://hls.cntv.myhwcdn.cn/asp/hls/4000/0303000a/3/default/8cdd688b04e4495ba1635e218419d6f9/4000.m3u8
中国气象,http://hls.weathertv.cn/tslslive/qCFIfHB/hls/live_sd.m3u8
CGTNArabic,http://livear.cgtn.com/1000a/prog_index.m3u8
CGTNEspa?ol,http://livees.cgtn.com/500e/prog_index.m3u8
CGTNFrance,http://livefr.cgtn.com/1000f/prog_index.m3u8
梅州一套综合,http://pili-live-hls.xianchangliving.gdmztv.com/meizhou-xianchangliving/mztv1.m3u8
梅州二套公共,http://pili-live-hls.xianchangliving.gdmztv.com/meizhou-xianchangliving/mztv2.m3u8
欢笑剧场4K,http://124.222.142.65:5678/zhibo/index.php?id=hxjc
之江纪录,http://124.222.142.65:5678/zhibo/index.php?id=zjjl
杭州综合,http://124.222.142.65:5678/zhibo/index.php?id=hzzh
杭州明珠,http://124.222.142.65:5678/zhibo/index.php?id=hzmz
杭州生活,http://124.222.142.65:5678/zhibo/index.php?id=hzsh
杭州影院,http://124.222.142.65:5678/zhibo/index.php?id=hzys
杭州少儿体育,http://124.222.142.65:5678/zhibo/index.php?id=hzse
江夏新闻综合,http://59.175.226.142:280/gb28181/xwzh.m3u8?zhubd
荆门新闻综合,http://stream.jmtv.com.cn/xwzh/sd/live.m3u8?zhubd
十堰新闻,http://p8.vzan.com/slowlive/034028687228317362/live.m3u8
麻城综合,http://119.36.30.199:8888/mctv1.m3u8
????天空电影台MIX4K,http://rhsbjv7k.tvclub.xyz/iptv/74SQ72P5LQUZV5/17025/index.m3u8
????天空电影台4KUHD,http://rhsbjv7k.tvclub.xyz/iptv/74SQ72P5LQUZV5/17058/index.m3u86204img2/6204
????天空电影台4KHDR,http://rhsbjv7k.tvclub.xyz/iptv/74SQ72P5LQUZV5/17059/index.m3u8
广西｜广西都市,http://111.59.63.32:9901/tsfile/live/1005_1.m3u8












